{
  "shippingItemRelationshipStates": {
    "PARTIAL_BACK_ORDERED_SG": "Vi har i øjeblikket __quantity__ vare(r) på lager. Restlageret vil blive opfyldt på en senere data som en restordre.",
    "PENDING_SUBITEM_DELIVERY_SG": "Varen venter på afhængige undervarer fra lager",
    "NO_ACTION_SG": "Ingen handling er udført på denne vare",
    "ITEM_NOT_FOUND_SG": "Lagervaren blev ikke fundet i lagersystemet",
    "PARTIAL_PRE_ORDERED_SG": "Vi har i øjeblikket __quantity__ vare(r) på lager. Restlageret vil blive opfyldt på en senere data som en forhåndsordre.",
    "PENDING_RETURN_SG": "Varen afventer en returanmodning",
    "CANCEL_REQUESTED_SG": "Varen er anmodet til annullering som en del af annullering af ordre",
    "RETURNED_SG": "Varen er returneret",
    "FAILED_SG": "Varen fejlede",
    "PENDING_SHIPMENT": "Afventer forsendelse",
    "RETURN_REQUESTED_SG": "Varen er anmodet til returnering som en del af annullering af ordre",
    "OUT_OF_STOCK_SG": "Varen var ikke tilgængelig",
    "PRE_ORDERED_SG": "Varen er ikke tilgængelig på lager i øjeblikket og er forudbestilt",
    "DISCONTINUED_SG": "Varen er ophørt",
    "INITIAL_SG": "Varen er initialiseret inden for forsendelsesgruppen",
    "PENDING_DELIVERY_SG": "Varen er klar til afsendelse",
    "PENDING_REMOVE_SG": "Varen afventer en fjernelsesanmodning",
    "DELIVERED_SG": "Varen er leveret",
    "BACK_ORDERED_SG": "Varen er ikke tilgængelig på lager i øjeblikket og er i restordre",
    "REMOVED_SG": "Varen er fjernet fra forsendelsesgruppen"
  },
  "purchaselist": {
    "purchaseListModalCreateList": "Opret liste",
    "CreateNewPurchaseListSuccessMsg": "Indkøbslisten er oprettet, og dit produkt er tilføjet",
    "CreateNewPurchaseListErrorMsg": "Oprettelse af indkøbsliste fejlede",
    "maxAllowedListNameLength": "Navn må ikke indeholde mere end 256 tegn",
    "minQuantityCheck": "Mængde skal være større end 0",
    "newPurchaseListModalTitle": "Opret en indkøbsliste",
    "productAddToPurchaseListText": "Tilføj til indkøbsliste",
    "SuccessMsg": "__productname__ er tilføjet til din __purchaselistname__",
    "myPurchaseListText": "Mine indkøbslister",
    "purchaseListModalCancel": "Annuller",
    "listNameMandatoryText": "Listenavn er obligatorisk",
    "createNewPurchaseListText": "Opret indkøbsliste",
    "validQuantityCheck": "Indtast en gyldig mængde",
    "productAddError": "Vælg SKU-indstillinger",
    "purchaseListNameText": "Navn på indkøbsliste",
    "emptyCheck": "Mængde må ikke være tomt",
    "productAddedToPurchaseListText": "Tilføjet",
    "listNameText": "Listenavn",
    "successMsgPurchaseListName": "__purchaselistname__",
    "successMsgProductName": "__productname__ er tilføjet til din"
  },
  "editOrder": {
    "fetchOrderDetailsFailedMessage": "Kunne ikke hente ordredetaljer til den oprettede nye ordre.",
    "editOrderErrorHeader": "Fuldførelse af ordre fejlede.",
    "copyOrderFailureMessage": "Kunne ikke oprette den nye ordre fra den redigerede ordre.",
    "initiateAmendFailed": "Initier Rediger ordre fejlede",
    "cancelOrderErrorHeader": "Fejl i ordreannullering"
  },
  "buttonLabels": {
    "continueText": "Fortsæt",
    "buttonSave": "Gem",
    "escapeKeyText": "esc",
    "buttonCancel": "Annuller",
    "yesText": "Ja",
    "cancelText": "Annuller",
    "noText": "Nej",
    "backLink": "Tilbage",
    "closeText": "Luk",
    "confirmText": "Bekræft",
    "okText": "OK",
    "backLinkAltText": "Tilbage til forrige side"
  },
  "cancelOrder": {
    "cancelOrderSuccess": "Din ordre er annulleret.",
    "cancelOrderFail": "Kan ikke annullere. Din ordre er ikke annulleret.",
    "enterCancelReason": "Annulleringsårsag er obligatorisk."
  },
  "paymentGroupStates": {
    "AUTHORIZE_FAILED_PG": "Autorisationen fejlede",
    "PAYMENT_REQUEST_ACCEPTED_PG": "Betalingsanmodning accepteret",
    "SETTLED_PG": "Gebyrerne er afregnet",
    "AUTHORIZED_PG": "Autorisationen gennemført",
    "INITIAL_PG": "Betalingsgruppen er initialiseret",
    "CREDIT_FAILED_PG": "Kreditten fejlede",
    "REMOVED_PG": "Betalingsgruppen er fjernet",
    "PENDING_AUTHORIZATION_PG": "Afventer autorisation",
    "PAYMENT_DEFERRED_PG": "Betaling udskudt",
    "SETTLE_FAILED_PG": "Finansieringsafregningen fejlede",
    "PAYMENT_REQUEST_FAILED_PG": "Betalingsanmodning fejlede"
  },
  "dynamicProperties": {
    "additionalInfoText": "Yderligere oplysninger",
    "internalProperties": "Interne egenskaber"
  },
  "onBehalfOf": {
    "shoppingAsText": "Køber som",
    "brandLabel": "Commerce Cloud"
  },
  "cart": {
    "quantityNotFullyAllocated": "Varemængde i vogn ikke fuldt allokeret til forsendelsesgrupper.",
    "anonymousAccessControlError": "Log på sitem med din bruger-id og adgangskode.",
    "outOfStockMsg": "Denne vare er ikke længere på lager. Fjern vare fra vognen?",
    "availabilityDateText": "Tilgængelig ",
    "backOrderText": "I restordre - ",
    "quantityAllocationExceeded": "Mængde af vare, der er allokeret til forsendelsesgrupper, overskrider mængde af vare i vogn.",
    "productNameHasNext": "__productName__, ",
    "partialBackOrderMsg": "Vi har i øjeblikket __stockLimit__ vare(r) på lager. Du kan imidlertid afgive en ordre nu på den fulde indtastede mængde, og restlageret vil blive opfyldt på en senere data som en restordre.",
    "volumePricedAddonError": "Følgende vare(r) skal fjernes fra din vogn, da de(n) ikke opfylder priskriterierne: __productNames__.",
    "backOrderedText": "Vare(r) i restordre",
    "freeProductText": "Gratis produkt",
    "createOrderSiteLink": "Ny",
    "preOrderedText": "Vare(r) forudbestilt",
    "accountsCompleteOrderDetailText": "Se vogn __count__ vare - __currency____totalPrice__",
    "orderPricingPromotionError": "Gennemgå ordren. Varer eller rabatter, der er anvendt, er ændret, siden de blev føjet til ordren.",
    "configurableProductOutOfStockMsg": "Udsolgt. Du kan omkonfigurere eller fjerne denne vare.",
    "invalidShopperInputError": "Følgende vare(r) skal fjernes fra din vogn, da dit valg ikke længere gælder: __productName__.",
    "priceOrderBlockedText": "Ordreprissætningskald blokeret, da ordreafgivelse er igangværende.",
    "completeOrderDetailTextInMixCurrency": "Se vogn __count__ item - __primaryCurrencySymbol____totalPrimaryPrice__ + __secondaryCurrencySymbol____totalSecondaryPrice__",
    "insufficientStockMsg": "Du kan maksimalt bestille __stockLimit__ til dette produkt.",
    "quantityNumericMsg": "Ugyldig indtastning. Indtast kun tal.",
    "preOrderText": "Forudbestilt - ",
    "AgentBackOrderedText": "__stockLimit__ vare(r) i restordre",
    "productPriceChanged": "Denne vares pris er ændet, siden den blev føjet til vognen. Oprindelig pris var: __currency____originalPrice__ ",
    "giftChoiceText": "Du er kvalificeret til en gratis gave. Vælg indstillingerne nedenfor.",
    "cartSessionExpired": "Din session er udløbet pga. inaktivitet. Log på igen",
    "quantityRequireMsg": "Mængde er obligatorisk. ",
    "partialPreOrderMsg": "Vi har i øjeblikket __stockLimit__ vare(r) på lager. Du kan imidlertid afgive en ordre nu på den fulde indtastede mængde, og restlageret vil blive opfyldt på en senere data som en forhåndsordre.",
    "hiphenText": "-",
    "removeItemMsg": "Fjern vare fra vognen?",
    "asteriskSymbol": "*",
    "AgentPreOrderedText": "__stockLimit__ vare(r) forudbestilt",
    "removeItemFromCart": "Fjern fra indkøbsvogn",
    "invalidCartItemsError": "Følgende vare(r) fjernes fra din vogn, da de(n) ikke længere er til salg: __productNames__.",
    "AgentBackorderableText": "__stockLimit__ vare(r) i restordre",
    "noPrice": "Denne vare er ikke længere gyldig. Fjern fra vogn.",
    "accountsCompleteOrderDetailText_plural": "Se vogn __count__ varer - __currency____totalPrice__",
    "configurableProductNoPrice": "__message__ Du kan omkonfigurere eller fjerne fra vogn.",
    "AgentPreorderableText": "__stockLimit__ vare(r) kan forudbestilles",
    "giftCardUsedText": "Gavekort anvendt: "
  },
  "search": {
    "searchPlaceholder": "Indtast din søgetekst her.",
    "searchPageLoadedText": "Indlæst søgeresultatside viser __results__ til søgetermen __searchTerm__",
    "searchDropdownClosedText": "Siden Søgeresultater er lukket.",
    "searchButtonText": "Søgning",
    "refinementValueText": "__dataLabel__ (__dataCount__)",
    "searchFailedText": "Kan ikke udføre en søgning på dette tidspunkt.",
    "searchDropdownOpenedText": "Siden Søgeresultater er tilgængelig.",
    "productresultsText": "Resultater: __startIndex__ - __endIndex__ (of __totalProducts__)",
    "searchLabel": "Søgning",
    "emptyProductresultsText": "Resultater: 0",
    "returnCodeLabel": "Returkode",
    "noProductsFound": "Du søgte efter '__searchterm__'. Ingen produkter blev fundet.",
    "searchText": "Viser resultater til __searchTerm__ ",
    "noProductsFoundNoSearchTerm": "Ingen produkter blev fundet.",
    "priceUnavailable": "Pris utilgængelig",
    "searchresultsText": "Resultater: __startIndex__ - __endIndex__ (af __count__)",
    "noMatchesFound": "Ingen matchninger fundet",
    "showAllResultsText": "Vis alle resultater >>",
    "noSearchResultsText": "Vi kunne ikke finde nogen resultater til __searchTerm__"
  },
  "commerceItemStates": {
    "PRE_ORDERED_CI": "Varen er i forudbestilt",
    "RETURN_REQUESTED_CI": "Returnering anmodet på varen",
    "PENDING_REMOVE_CI": "Varen afventer flytteanmodning",
    "OUT_OF_STOCK_CI": "Varen var ikke tilgængelig",
    "REMOVED_CI": "Varen er fjernet",
    "DISCONTINUED_CI": "Varen er ophørt",
    "FAILED_CI": "Varen fejlede",
    "NO_ACTION_CI": "Ingen handling udført på varen",
    "BACK_ORDERED_CI": "Varen er i restordre",
    "ITEM_NOT_FOUND_CI": "Lagervaren blev ikke fundet i lagersystemet",
    "INITIAL_CI": "Tilføjet til ordre",
    "SUBITEM_PENDING_DELIVERY_CI": "Varen afventer levering",
    "CANCEL_REQUESTED_CI": "Annullering anmodet på varen"
  },
  "paymentMethods": {
    "physicalGiftCard": "Gavekort",
    "inStorePayment": "Betaling i butik",
    "onlinePaymentGroup": "Onlinebetaling",
    "default": "Standardbetaling",
    "invoiceRequest": "Fakturabetaling",
    "tokenizedCreditCard": "Kreditkort",
    "externalPaymentGroup": "Ekstern",
    "creditCard": "Kreditkort",
    "giftCertificate": "Gavecertifikat",
    "cash": "Kontantbetaling",
    "storeCredit": "Tilgodebevis"
  },
  "orderStates": {
    "PENDING_REMOVE": "Afventer fjernelse",
    "ALL": "Alle",
    "PENDING_CUSTOMER_ACTION": "Afventer kundes handling",
    "REJECTED_QUOTE": "Dette tilbud er afvist",
    "INCOMPLETE_CANCEL": "Ordre, der annulleres",
    "PROCESSING": "Behandles",
    "PENDING_MERCHANT_ACTION": "Afventer handlendes handling",
    "AGENT_REJECTED": "Annulleret af agent",
    "FAILED_APPROVAL_TEMPLATE": "Tidsplanlagt ordre fejlede godkendelse",
    "FAILED": "Fejlet",
    "BEING_AMENDED": "Ordre korrigeres",
    "TEMPLATE": "Tidsplanlagt ordreskabelon",
    "NO_PENDING_ACTION": "Opfyldt",
    "REMOVED": "Fjernet",
    "REJECTED": "Afvist",
    "PENDING_PAYMENT": "Afventer betaling",
    "QUOTED": "Denne ordre er et tilbud",
    "PENDING_QUOTE": "Dette tilbud venter",
    "PENDING_CUSTOMER_RETURN": "Afventer returnering fra kunde",
    "PENDING_APPROVAL_TEMPLATE": "Tidsplanlagt ordre, der afventer godkendelse",
    "INCOMPLETE": "Ufuldstændig",
    "QUOTE_REQUEST_FAILED": "Din tilbudsanmodning blev ikke gennemført.",
    "PENDING_PAYMENT_TEMPLATE": "Ventende betalingsskabelon",
    "PENDING_APPROVAL": "Afventer godkendelse",
    "RESERVED_INVENTORY_SG": "Lager er reserveret til varen",
    "QUEUED": "Afsendt",
    "SUSPENDED": "Suspenderet",
    "PENDING_AGENT_APPROVAL": "Afventer agentgodkendelse",
    "FAILED_APPROVAL": "Fejlede godkendelse",
    "SUBMITTED": "Afsendt til opfyldelse",
    "APPROVED": "Godkendt"
  },
  "checkout": {
    "orderTotalText": "Ordretotal:",
    "giftCardPinText": "Gavekort-PIN",
    "dynamicPropertyRequired": "__fieldName__ er påkrævet",
    "cityStatePostalCode": "__city__, __state__. __postalCode__",
    "paymentErrorMsg": "Fejl ved behandling af betaling. Prøv igen.",
    "orderSubmissionFailed": "Ordreafsendelse fejlede.",
    "selectShippingOptionsText": "Vælg din forsendelsesmetode",
    "voidPaymentConfirmationPopUpText": "Du er ved at annullere en autoriseret betaling. Yderligere betalinger kan være påkrævet. Er du sikker på, at du vil fortsætte?",
    "processCompletionFailed": "Din ordre er ikke blevet afgivet på dette tidspunkt. Prøv igen.",
    "voidPaymentText": "Annuller betaling",
    "invalidProfileForCheckout": "Du skal logge på, før du kan logge ud.",
    "orderCouponDisplayText": "* __description__ - __code__",
    "giftCardPinRequired": "Gavekort-PIN er obligatorisk.",
    "shippingAddressRequired": "Indtast en forsendelsesadresse",
    "invalidShippingMethod": "Ugyldig forsendelsesmetode angivet.",
    "invalidOrderDetails": "Der var en fejl. Tjek forsendelsesadressen",
    "itemNameText": "Navn",
    "removeItemText": "Fjern",
    "fetchingShippingMethodsText": "Henter forsendelsesmetoder til adresse",
    "noShippingMethodsText": "Der er ingen forsendelsesmetoder tilgængelige til din destinationsadresse.",
    "salesTaxText": "Omsætningsafgift:",
    "shippingMethodValueText": "__shippingMethod__:",
    "shippingDiscountText": "Forsendelsesrabat(ter):",
    "toBeChargedPaymentText": " skal opkræves på __type__ __number__",
    "OrderDiscountDesc": "* __discountDesc__",
    "paymentExpiredMsg": "Betaling er udløbet. Prøv igen.",
    "paymentRemovedText": "Din betaling er fjernet.",
    "quantityText": "Mængde",
    "noShippingSelectedText": "Ingen forsendelsesmetode valgt.",
    "skuUnavailableText": "SKU er utilgængelig",
    "placeOrderRegisterWarnMsg": "Kan ikke afgive ordre før registrering af bruger",
    "removeCouponLinkReadText": "Fjern kupon",
    "shippingOptionsText": "Forsendelsesindstillinger",
    "shippingMethodText": "Forsendelsesmetode:",
    "discountText": "Rabat(ter)*:",
    "itemText": "Vare",
    "reapplyGIftCards": "De(t) gavekort, som du har indtastet, er ikke blevet anvendt på ordren. Indtast gavekort(ene) igen.",
    "chargedPaymentText": " Opkrævet på __type__ __number__",
    "orderCannotBeUpdatePendingPaymentText": "Denne ordre er låst. Evt. opdateringer af den ud over betalingsoplysninger kasseres.",
    "selectShippingMethodText": "Vælg forsendelsesmetode",
    "subtotalText": "Subtotal:",
    "pricingError": "Kan ikke beregne forsendelses- og afgiftsomkostninger. Tjek forsendelsesadressen.",
    "invalidSKUError": "SKU findes ikke. Indtast en gyldig SKU.",
    "shipToText": "Afsend til:",
    "paymentDeclinedMsg": "Betaling er afvist. Prøv igen.",
    "cityPostalCode": "__city__. __postalCode__",
    "fullName": "__firstName__ __lastName__",
    "giftCardNumberText": "Gavekortnr.",
    "itemDetailsText": "Varedetaljer",
    "paymentReversalFailed": "Vi kan ikke behandle din ordre pga. et teknisk problem.",
    "invalidShippingAddress": "Ugyldig forsendelsesadresse angivet.",
    "placeHolderItemsErrorMsg": "Du har ikke valgt din gratis gave. Du kan gå tilbage til vognen og vælge din gratis gave eller fortsætte til udtjekning. Bemærk: Hvis du fortsætter til udtjekning, fjernes evt. ikke-valgte gratis gaver fra vognen, og yderligere adgang til den tillades ikke.",
    "couponDisplayText": "__description__ - __code__",
    "itemTotalText": "Varetotal",
    "giftCardNumberRequired": "Gavekortnummer er obligatorisk.",
    "shippingMethodsErrorMsg": "Sørg for, at du har udfyldt alle forsendelsesfelter og rettet evt. ugyldige indtastninger.",
    "deductedPaymentText": "Trukket fra __type__-saldo"
  },
  "userSsoLogin": {
    "ssoLoginLinkText": "Log på via SSO"
  },
  "product": {
    "optionRequiredMsg": "__optionName__ required",
    "volumePriceTableSummaryText": "Voumenprissætning",
    "notifyDialogTitle": "Underret mig",
    "notifyInstructions": "Indtast din e-mailadresse, og vi underretter dig,, hvis denne vare kommer på lager igen.",
    "configurableProductError": "Du kan ikke tilføje følgende varer fra din ordre til vognen, da du skal vælge konfigurationsindstillinger: __displayName__ ",
    "optionHasNext": "$t(ns.common:resources.option),",
    "notifySuccess": "Tak for din anmodning. Vi sender dig en e-mail, når den er på lager igen.",
    "optionCaption": "Vælg __optionName__ ...",
    "optionLast": "$t(ns.common:resources.option)",
    "skuOutOfStockError": "__sku__ er udsolgt.",
    "outOfStockError": "Følgende vare(r) blev ikke føjet til din vogn, da de er udsolgt: __displayName__ ",
    "notifyMeText": "Send e-mail til mig, når på lager igen",
    "notifyOutOfStock": "Denne vare er udsolgt i øjeblikket.",
    "volumePriceQuantitySeparator": "__min__ - __max__",
    "volumePriceQuantityGreater": "__min__+",
    "productNotFoundError": "Følgende vare(r) blev ikke føjet til din vogn, da de ikke længere er til salg: __displayName__ ",
    "noneOfTheItemsCanBeAdded": "Ingen af varerne i denne ordre kan føjes til vognen.",
    "skuNotFoundError": "__sku__ ikke fundet",
    "configurationDetails": "Detaljer",
    "notifyFailed": "Desværre kan vi ikke behandle anmodningen på nuværende tidspunkt.",
    "priceText": "Pris",
    "option": "__optionName__: __optionValue__",
    "shippingSurchargeText": "Forsendelsestillæg:"
  },
  "selfRegistrationRequest": {
    "requesterOrgText": "Relateret eksisterende konto",
    "registerText": "Registrer",
    "phoneNumberMandatoryText": "Telefonnummer er obligatorisk.",
    "requesterCommentMaxLengthText": "Rekvirents kommentarer kan ikke være mere end 1000 tegn.",
    "phoneNumberText": "Telefonnr.",
    "zipCodeText": "Postnr.",
    "companyNameText": "Firmanavn",
    "submitText": "Afsend",
    "addressOneText": "Adresse 1",
    "receiveEmailText": "Modtag e-mail",
    "requesterCommentText": "Rekvirents kommentarer",
    "stateMandatoryText": "Stat er obligatorisk.",
    "newBusinessAccountText": "Opret en ny forretningskonto",
    "zipCodeInvalid": "Ugyldig indtastning. Indtast et gyldigt postnummer.",
    "countryText": "Land",
    "postalMandatoryText": "Postnr. er obligatorisk.",
    "countryMandatoryText": "Land er obligatorisk.",
    "phoneNumberInvalid": "Telefonnummer er ugyldigt.",
    "accountNameText": "Kontonavn",
    "approverCommentMaxLengthText": "Godkenders kommentarer kan ikke være mere end 1000 tegn.",
    "invalidInput": "Ugyldigt input",
    "thankYouMessage": "Tak, fordi du har sendt en registreringsanmodning. Vi gennemgår din anmodning og underretter dig om resultaterne via e-mail. Vi kontakter dig, hvis vi har brug for yderligere oplysninger.",
    "cityMandatoryText": "By er obligatorisk.",
    "registerNewAccountLinkText": "Registrer dig for at få en konto",
    "thankYouText": "Tak",
    "addressOneMandatoryText": "Adresse1 er obligatorisk.",
    "existingBusinessAccountText": "Tilmeld dig en eksisterende forretningskonto",
    "stateText": "Stat/provins",
    "addressTwoText": "Adresse 2",
    "cityText": "By"
  },
  "social": {
    "socialFacebookShareProductDescriptionText": "Køb __productName__ [Dit butiksnavn]",
    "socialFacebookShareWishlistDescriptionText": "Tjek ud, hvad __wishListOwnerFirstname__ __wishListOwnerLastname__ er interesseret i at købe (eller har købt som gave!). Opdag nyt produkter og mere.",
    "socialFacebookShareWishlistTitleText": "Se __wishListOwnerFirstname__'s __wishlistName__ ønskeliste",
    "socialFacebookInviteMessageText": "Vær med på __ownername__'s ønskeliste. Som medlem kan du dele idéer, tilføje produkter og kommentarer og mere!"
  },
  "userForgottenPassword": {
    "forgotPwdPart2": "Du skal opdatere dette, næste gang du logger på.",
    "forgotPwdPart1": "Indtast din e-mailadresse for at modtage din nye midlertidige adgangskode.",
    "emailCancelText": "Annuller",
    "accountIdText": "Konto-id",
    "resendRequestText": "Send anmodning igen",
    "forgotPwdMessage": "En ny midlertidig adgangskode er sendt til din e-mailadresse sammen med instruktioner om nulstilling af adgangskode.",
    "sendRequestText": "Send anmodning",
    "updatePasswordSuccessMessage": "Adgangskode er opdateret.",
    "updatePasswordErrorMessage": "Der opstod en fejl under opdatering af adgangskoden. Prøv igen.",
    "resetPasswordMessage": "Din anmodning om nulstilling af adgangskode er sendt. Et nyt adgangskode-link er sendt til din e-mailkonto, så du kan logge på igen.",
    "forgotPasswordHelpText": "Indtast din e-mailadresse for at modtage et sikkert link til nulstilling af din adgangskode.",
    "resetPwdText": "Nulstil adgangskode",
    "updatePasswordText": "Opdater adgangskode",
    "forgotPwdText": "Glemt adgangskode",
    "forgotPasswordLinkText": "Glemt adgangskode?",
    "emailPasswordText": "E-mail adgangskode",
    "ssoLoginText": "Single Sign On"
  },
  "userDetails": {
    "wishlist": "Ønskeliste",
    "emailAddressText": "E-mailadresse",
    "forgottenPasswordModalClosedText": "Siden Glemt adgangskode er lukket.",
    "headercreateNewPassword": "Opret ny adgangskode",
    "createNewPwdMessage": "Adgangskode er opdateret.",
    "emailAddressRequired": "E-mailadresse er obligatorisk. ",
    "createNewPasswordModalOpenedText": "Siden Opret ny adgangskode er åben.",
    "networkConnectivityError": "Nogle funktioner kunne ikke indlæses pga. en problem med internetforbindelse. Prøv at genindlæse siden, hvis problemet vedvarer.",
    "checkoutCreateAccountText": "Ved at oprette en konto vil du kunne handle hurtigere, være ajour med en ordres status og kunne spore de ordrer, som du har afgivet tidligere.",
    "createNewPasswordError": "Din adgangskode er udløbet. Opdater, før du logger på.",
    "welcome": "Velkommen __userName__",
    "cityRequired": "By er obligatorisk.",
    "invalidOrganization": "Valgt organisation er ikke en gyldig organisation for den påloggede bruger.",
    "passwordText": "Adgangskode",
    "noAccountText": "Har du ikke en konto?",
    "emailAddressInvalid": "Ugyldig indtastning. Indtast gyldig e-mailadresse, f.eks. john@smith.com.",
    "accountAlreadyExists": "En konto findes allerede til denne e-mailadresse. Indtast en anden e-mail-adresse.",
    "lastNameRequired": "Efternavn er obligatorisk. ",
    "lastNameText": "Efternavn",
    "registrationModalClosedText": "Registreringsside er lukket.",
    "firstNameRequired": "Fornavn er obligatorisk. ",
    "newConfirmPasswordText": "Bekræft ny adgangskode",
    "filterText": "Søg efter en konto",
    "confirmPasswordText": "Bekræft adgangskode",
    "marketingMailsText": "Jeg vil gerne modtage e-mailopdateringer.",
    "loginModalOpenedText": "Logonside er åben.",
    "addressLine1Required": "Adresse1 er obligatorisk.",
    "maxlengthValidationMsg": "Ugyldig indtastning. Overskrid ikke maksimum på __maxLength__ tegn.",
    "loginLinkText": "Log på",
    "pickupDetailsErrorMsg": "Dine afhentningsdetaljer skal forblive de samme til hver vare, der afhentes i din valgte butik.",
    "resetPasswordModalClosedText": "Siden Nulstil adgangskode er lukket.",
    "updatePasswordModalOpenedText": "Siden Opdater adgangskode er åben.",
    "companyNameRequiredText": "Firmanavn er obligatorisk.",
    "localeRequired": "Landestandard er obligatorisk. ",
    "oldPasswordsDoNotMatch": "Forkert værdi til tidligere adgangskode. ",
    "buttonCreateAccount": "Opret konto",
    "phoneNumberRequiredText": "Telefonnummer er obligatorisk.",
    "buttonLogin": "Log på",
    "accountError": "Der er et problem med din konto. Kontakt kontoadministratoren.",
    "emailInfoText": "Sådan sender vi din ordrebekræftelse og opdateringer om forsendelse.",
    "passwordUnmatched": "De indtastede adgangskoder matcher ikke. Prøv igen. ",
    "companyNameRequired": "Firmanavn er obligatorisk. ",
    "headerCreateAccount": "Opret en konto",
    "newPasswdText": "Ny adgangskode",
    "titleError": "Fejl",
    "updatePasswordModalClosedText": "Siden Opdater adgangskode er lukket.",
    "maxLengthEmailAdd": "Ugyldig indtastning. Overskrid ikke maksimum på __maxLength__ tegn",
    "titleLogin": "Log på",
    "passwordRequired": "Adgangskode er obligatorisk.",
    "firstNameText": "Fornavn",
    "personalizationConsentText": "Vis mig relevant siteindhold og promotions under gennemsyn.",
    "registrationModalOpenedText": "Registreringsside er åben.",
    "nickNameRequiredText": "Kaldenavn er obligatorisk.",
    "currentPasswordRequired": "Aktuel adgangskode er obligatorisk.",
    "createNewPasswordModalClosedText": "Siden Opret ny adgangskode er lukket.",
    "forgottenPasswordModalOpenedText": "Siden Glemt adgangskode er åben.",
    "confirmPasswordRequired": "Indtast din adgangskode igen.",
    "createAccountText": "Opret konto",
    "createAccountSuccess": "Din konto er oprettet. Tak for din registrering.",
    "loginModalClosedText": "Logonside er lukket.",
    "updateSuccessMsg": "Opdatering er gemt.",
    "loginRequired": "Logon er obligatorisk.",
    "logoutLinkText": "Log af",
    "resetPasswordModalOpenedText": "Siden Nulstil adgangskode er åben.",
    "loginError": "Logon ikke gennemført. De indtastede detaljer matcher ikke vores optegnelser. Prøv igen.",
    "checkoutErrorMsg": "Sørg for, at du har udfyldt alle obligatoriske felter og rettet evt. ugyldige indtastninger.",
    "reloadPage": "Genindlæs",
    "myAccount": "Min konto",
    "currentPasswordText": "Aktuel adgangskode"
  },
  "orderDetails": {
    "organizationDisaccoiatedErrorText": "Bruger er ikke knyttet til kontoen __account__. Ingen operationer tilladt på denne ordre.",
    "ordersListingErrorText": "ERROR",
    "organizationInactiveErrorText": "Kontoen __account__ er aktuelt inaktiv. Ingen operationer tilladt på denne ordre.",
    "userNotAssociatedToAnyAccountText": "Bruger er ikke knyttet til nogen konto. Ingen operationer tilladt på denne ordre.",
    "symbolAndAmountText": "__currencySymbol____amount__",
    "mixedCurrencyAmountText": "__primaryCurrencySymbol__ __primaryCurrencyAmount__+__secondaryCurrencySymbol____secondaryCurrencyAmount__",
    "orderNotAssociatedToAnyAccountText": "Ordre er ikke knyttet til nogen konto. Ingen operationer tilladt på denne ordre."
  },
  "storeText": {
    "goToPreviousPagePaginationSymbol": "<",
    "wishlistPageLoadedText": "Ønskelisteside er indlæst.",
    "invalidOrderState": "Ugyldig ordretilstand.",
    "goToLastPagePaginationSymbol": ">>",
    "priceRangeText": "Prisinterval",
    "goToNextPagePaginationSymbol": ">",
    "septemberText": "September",
    "goToFirstPagePaginationSymbol": "<<",
    "customTextNotFound": "[Tilpasset tekst mangler]",
    "januaryText": "Januar",
    "marchText": "Marts",
    "novemberText": "November",
    "pageLoadedText": "__page__ er indlæst.",
    "decemberText": "December",
    "removeConfigurableMsg": "Ændring af valuta fjerner alle konfigurerede varer fra din vogn. Vil du fortsætte?",
    "augustText": "August",
    "loadingText": "Indlæser...",
    "productPageLoadedText": "Side med produktdetaljer til __product__ er indlæst.",
    "mayText": "Maj",
    "categoryText": "Kategori",
    "aprilText": "April",
    "juneText": "Juni",
    "octoberText": "Oktober",
    "julyText": "Juli",
    "februaryText": "Februar",
    "categoryPageLoadedText": "Samlingsside til __collection__ er indlæst"
  },
  "miniCart": {
    "cartDropDownText_plural": "__count__ varer - __currency____totalPrice__",
    "miniCartOpenedText": "Miniindkøbsvogn er åben.",
    "freeProductText": "Gratis produkt",
    "miniCartClosedText": "Miniindkøbsvogn er lukket.",
    "cartDropDownText": "__count__ vare - __currency____totalPrice__"
  },
  "userPasswordPolicies": {
    "passwordPoliciesErrorText": "Den indtastede adgangskode overholder ikke adgangskodepolitikken. Prøv igen.",
    "embeddedAssistanceUseMixedCase": "indeholder store og små bogstaver",
    "embeddedAssistanceNotInPreviousNPasswords": "ikke er anvendt tidligere",
    "embeddedAssistancePreText": "Du skal sørge for, at adgangskoden:",
    "embeddedAssistanceCannotUseUsernameText": "er forskelligt fra dit brugernavn",
    "embeddedAssistanceUseNumber": "indeholder et tal",
    "embeddedAssistanceMinPasswordLengthText": "er på mindst __min__ tegn",
    "embeddedAssistanceUseSymbol": "indeholder et af følgende symboler __chars__"
  },
  "return": {
    "minimumValueMsg": "Ugyldig mængde. Indtast 1 eller mere.",
    "noReturnableItem": "Varerne i din ordre kan ikke returneres",
    "invalidQuantityMsg": "Ugyldig mængde",
    "someitemsDeleted": "Nogle varer er slettet.",
    "returnRequestFailed": "Din returanmodning blev ikke gennemført.",
    "returnRequestSuccess": "Returanmodningen '__requestId__' er afsendt. En e-mail er sendt til '__emailId__'",
    "invalidQuantity": "Ugyldig mængde. Mere end __stockLimit__ er ikke tilladt.",
    "itemOutOfStockMessage": "Valgt vare er udsolgt",
    "invalidReturnQuantity": "Den returnerede mængde af denne vare skal være større end nul og kan ikke overskride den oprindelige mængde, der er bestilt, eller den oprindelige mængde, der er bestilt, minus den mængde, der er knyttet til evt. tidligere returanmodninger.",
    "noItemSelectError": "Du skal vælge en returårsag og mængde til mindst én vare.",
    "allitemssDeleted": "Alle varerne i ordren er slettet."
  }
}