{
  "shippingItemRelationshipStates": {
    "PARTIAL_BACK_ORDERED_SG": "Αυτήν τη στιγμή υπάρχουν __quantity__ είδη σε απόθεμα. Το υπολειπόμενο απόθεμα θα συμπληρωθεί σε μεταγενέστερη ημερομηνία ως αναδρομική παραγγελία.",
    "PENDING_SUBITEM_DELIVERY_SG": "Το στοιχείο βρίσκεται σε κατάσταση αναμονής για εξαρτώμενα δευτερεύοντα στοιχεία από το απόθεμα",
    "NO_ACTION_SG": "Δεν ελήφθη ενέργεια για αυτό το στοιχείο",
    "ITEM_NOT_FOUND_SG": "Το στοιχείο δεν βρέθηκε στο σύστημα αποθέματος",
    "PARTIAL_PRE_ORDERED_SG": "Αυτήν τη στιγμή υπάρχουν __quantity__ είδη σε απόθεμα. Το υπολειπόμενο απόθεμα θα συμπληρωθεί σε μεταγενέστερη ημερομηνία ως προπαραγγελία.",
    "PENDING_RETURN_SG": "Εκκρεμεί αίτημα επιστροφής για το στοιχείο",
    "CANCEL_REQUESTED_SG": "Ζητήθηκε ακύρωση για το στοιχείο στα πλαίσια της εντολής ακύρωσης",
    "RETURNED_SG": "Έγινε επιστροφή του στοιχείου",
    "FAILED_SG": "Το στοιχείο απέτυχε",
    "PENDING_SHIPMENT": "Αποστολή σε εκκρεμότητα",
    "RETURN_REQUESTED_SG": "Ζητήθηκε επιστροφή για το στοιχείο στα πλαίσια της εντολής ακύρωσης",
    "OUT_OF_STOCK_SG": "Το στοιχείο δεν ήταν διαθέσιμο",
    "PRE_ORDERED_SG": "Το είδος αυτήν τη στιγμή δεν είναι διαθέσιμο σε απόθεμα και έχει υποβληθεί προπαραγγελία",
    "DISCONTINUED_SG": "Το στοιχείο καταργήθηκε",
    "INITIAL_SG": "Έγινε αρχικοποίηση του στοιχείου εντός της ομάδας αποστολής",
    "PENDING_DELIVERY_SG": "Το στοιχείο είναι έτοιμο για αποστολή",
    "PENDING_REMOVE_SG": "Εκκρεμεί αίτημα κατάργησης για το στοιχείο",
    "DELIVERED_SG": "Το στοιχείο παραδόθηκε",
    "BACK_ORDERED_SG": "Το είδος αυτήν τη στιγμή δεν είναι διαθέσιμο σε απόθεμα και έχει υποβληθεί αναδρομική παραγγελία",
    "REMOVED_SG": "Το στοιχείο καταργήθηκε από την ομάδα αποστολής"
  },
  "purchaselist": {
    "purchaseListModalCreateList": "Δημιουργία λίστας",
    "CreateNewPurchaseListSuccessMsg": "Η λίστα αγορών έχει δημιουργηθεί και το προϊόν σας έχει προστεθεί",
    "CreateNewPurchaseListErrorMsg": "Η δημιουργία λίστας αγορών απέτυχε",
    "maxAllowedListNameLength": "Το όνομα θα πρέπει να περιέχει λιγότερους από 256 χαρακτήρες",
    "minQuantityCheck": "Η ποσότητα θα πρέπει να είναι μεγαλύτερη από 0",
    "newPurchaseListModalTitle": "Δημιουργήστε μια λίστα αγορών",
    "productAddToPurchaseListText": "Προσθήκη στη λίστα αγορών",
    "SuccessMsg": "Το προϊόν __productname__ έχει προστεθεί στη λίστα αγορών σας __purchaselistname__",
    "myPurchaseListText": "Οι λίστες αγορών μου",
    "purchaseListModalCancel": "Άκυρο",
    "listNameMandatoryText": "Το όνομα λίστας είναι υποχρεωτικό",
    "createNewPurchaseListText": "Δημιουργία λίστας αγορών",
    "validQuantityCheck": "Εισαγάγετε μια έγκυρη ποσότητα",
    "productAddError": "Ορισμός επιλογών ΜΔΑ",
    "purchaseListNameText": "Όνομα λίστας αγορών",
    "emptyCheck": "Η ποσότητα δεν μπορεί να είναι κενή",
    "productAddedToPurchaseListText": "Προσθήκη",
    "listNameText": "Όνομα λίστας",
    "successMsgPurchaseListName": "__purchaselistname__",
    "successMsgProductName": "Το προϊόν __productname__ έχει προστεθεί στη "
  },
  "editOrder": {
    "fetchOrderDetailsFailedMessage": "Απέτυχε η ανάκτηση των λεπτομερειών παραγγελίας για τη δημιουργημένη νέα παραγγελία.",
    "editOrderErrorHeader": "Η ολοκλήρωση της παραγγελίας απέτυχε.",
    "copyOrderFailureMessage": "Απέτυχε η δημιουργία της νέας παραγγελίας από την επεξεργασμένη παραγγελία.",
    "initiateAmendFailed": "Η εκκίνηση της επεξεργασίας παραγγελίας απέτυχε",
    "cancelOrderErrorHeader": " Σφάλμα ακύρωσης παραγγελίας"
  },
  "buttonLabels": {
    "continueText": "Συνέχεια",
    "buttonSave": "Αποθήκευση",
    "escapeKeyText": "esc",
    "buttonCancel": "Άκυρο",
    "yesText": "Ναι",
    "cancelText": "Άκυρο",
    "noText": "Όχι",
    "backLink": "Πίσω",
    "closeText": "Κλείσιμο",
    "confirmText": "Επιβεβαίωση",
    "okText": "OK",
    "backLinkAltText": "Επιστροφή στην προηγούμενη σελίδα"
  },
  "cancelOrder": {
    "cancelOrderSuccess": "Η παραγγελία σας ακυρώθηκε.",
    "cancelOrderFail": "Δεν είναι δυνατή η ακύρωση. Η παραγγελία σας δεν ακυρώθηκε.",
    "enterCancelReason": "Η αιτία ακύρωσης είναι υποχρεωτική."
  },
  "paymentGroupStates": {
    "AUTHORIZE_FAILED_PG": "Η εξουσιοδότηση απέτυχε",
    "PAYMENT_REQUEST_ACCEPTED_PG": "Το αίτημα πληρωμής έγινε αποδεκτό",
    "SETTLED_PG": "Έγινε διακανονισμός των χρεώσεων",
    "AUTHORIZED_PG": "Η εξουσιοδότηση ολοκληρώθηκε με επιτυχία",
    "INITIAL_PG": "Έγινε αρχικοποίηση της ομάδας πληρωμής",
    "CREDIT_FAILED_PG": "Η πίστωση απέτυχε",
    "REMOVED_PG": "Η ομάδα πληρωμών καταργήθηκε",
    "PENDING_AUTHORIZATION_PG": "Εξουσιοδότηση σε εκκρεμότητα",
    "PAYMENT_DEFERRED_PG": "Η πληρωμή ματαιώθηκε",
    "SETTLE_FAILED_PG": "Ο διακανονισμός κεφαλαίων απέτυχε",
    "PAYMENT_REQUEST_FAILED_PG": "Το αίτημα πληρωμής απέτυχε"
  },
  "dynamicProperties": {
    "additionalInfoText": "Πρόσθετες πληροφορίες",
    "internalProperties": "Εσωτερικές ιδιότητες"
  },
  "onBehalfOf": {
    "shoppingAsText": "Αγορές ως",
    "brandLabel": "Commerce Cloud"
  },
  "cart": {
    "quantityNotFullyAllocated": "Η ποσότητα των στοιχείων στο καλάθι δεν έχει εκχωρηθεί πλήρως σε ομάδες αποστολής.",
    "anonymousAccessControlError": "Συνδεθείτε στην τοποθεσία με το αναγνωριστικό χρήστη και κωδικό πρόσβασής σας.",
    "outOfStockMsg": "Αυτό το είδος δεν βρίσκεται πλέον σε απόθεμα. Αφαίρεση είδους από το καλάθι αγορών σας;",
    "availabilityDateText": "Διαθέσιμο ",
    "backOrderText": "Αναδρομική παραγγελία - ",
    "quantityAllocationExceeded": "Η ποσότητα στοιχείων που εκχωρήθηκαν σε ομάδες αποστολής υπερβαίνει την ποσότητα των στοιχείων στο καλάθι.",
    "productNameHasNext": "__productName__, ",
    "partialBackOrderMsg": "Αυτήν τη στιγμή υπάρχουν __stockLimit__ είδη σε απόθεμα. Ωστόσο, μπορείτε να υποβάλετε μια παραγγελία τώρα για την πλήρη ποσότητα που καταχωρήθηκε και το υπολειπόμενο απόθεμα θα συμπληρωθεί σε μεταγενέστερη ημερομηνία ως αναδρομική παραγγελία.",
    "volumePricedAddonError": "Τα ακόλουθα είδη πρέπει να καταργηθούν από το καλάθι σας γιατί δεν πληρούν τα κριτήρια τιμολόγησης: __productNames__.",
    "backOrderedText": "Στοιχείο(α) ανεκτέλεστης παραγγελίας",
    "freeProductText": "Δωρεάν προϊόν",
    "createOrderSiteLink": "Νέα",
    "preOrderedText": "Στοιχείο(α) προπαραγγελίας",
    "accountsCompleteOrderDetailText": "Προβολή __count__ είδους καλαθιού αγορών - __currency____totalPrice__",
    "orderPricingPromotionError": "Ελέγξτε την παραγγελία σας. Κάποια είδη ή εφαρμοζόμενες εκπτώσεις έχουν αλλάξει από τη στιγμή που προστέθηκαν στην παραγγελία σας.",
    "configurableProductOutOfStockMsg": "Εξάντληση αποθέματος. Μπορείτε να κάνετε αναδιαμόρφωση ή κατάργηση αυτού του είδους.",
    "invalidShopperInputError": "Τα ακόλουθα είδη πρέπει να καταργηθούν από το καλάθι σας γιατί δεν ισχύει πλέον η επιλογή σας: __productName__.",
    "priceOrderBlockedText": "Η κλήση για τιμολόγηση παραγγελίας αποκλείστηκε επειδή βρίσκεται σε εξέλιξη υποβολή παραγγελίας.",
    "completeOrderDetailTextInMixCurrency": "Προβολή __count__ είδους καλαθιού - __primaryCurrencySymbol____totalPrimaryPrice__ + __secondaryCurrencySymbol____totalSecondaryPrice__",
    "insufficientStockMsg": "Μπορείτε να παραγγείλετε έως και __stockLimit__ για αυτό το προϊόν.",
    "quantityNumericMsg": "Μη αποδεκτή καταχώρηση. Εισαγάγετε μόνο αριθμούς.",
    "preOrderText": "Προπαραγγελία - ",
    "AgentBackOrderedText": "__stockLimit__ στοιχεία ανεκτέλεστης παραγγελίας",
    "productPriceChanged": "Η τιμή αυτού του είδους έχει αλλάξει από τη στιγμή που προστέθηκε στο καλάθι αγορών σας. Η αρχική τιμή ήταν: __currency____originalPrice__ ",
    "giftChoiceText": "Πληροίτε τα κριτήρια για το δωρεάν προϊόν. Ενεργοποιήστε παρακάτω τις επιλογές σας.",
    "cartSessionExpired": "Η περίοδος σύνδεσής σας έληξε λόγω αδράνειας. Συνδεθείτε ξανά",
    "quantityRequireMsg": "Η ποσότητα είναι υποχρεωτική. ",
    "partialPreOrderMsg": "Αυτήν τη στιγμή υπάρχουν __stockLimit__ είδη σε απόθεμα. Ωστόσο, μπορείτε να υποβάλετε μια παραγγελία τώρα για την πλήρη ποσότητα που καταχωρήθηκε και το υπολειπόμενο απόθεμα θα συμπληρωθεί σε μεταγενέστερη ημερομηνία ως προπαραγγελία.",
    "hiphenText": "-",
    "removeItemMsg": "Αφαίρεση είδους από το καλάθι αγορών σας;",
    "asteriskSymbol": "*",
    "AgentPreOrderedText": "__stockLimit__ στοιχεία προπαραγγελίας",
    "removeItemFromCart": "Καταργήστε το από το καλάθι.",
    "invalidCartItemsError": "Τα ακόλουθα είδη θα καταργηθούν από το καλάθι σας γιατί δεν διατίθενται πλέον προς πώληση: __productNames__.",
    "AgentBackorderableText": "__stockLimit__ Item(s) με δυνατότητα ανεκτέλεστης παραγγελίας",
    "noPrice": "Αυτό το είδος δεν είναι πλέον έγκυρο. Καταργήστε το από το καλάθι.",
    "accountsCompleteOrderDetailText_plural": "Προβολή __count__ ειδών καλαθιού αγορών - __currency____totalPrice__",
    "configurableProductNoPrice": "__message__ Μπορείτε να κάνετε αναδιαμόρφωση ή κατάργηση από το καλάθι.",
    "AgentPreorderableText": "__stockLimit__ Item(s) με δυνατότητα προπαραγγελίας",
    "giftCardUsedText": "Δωροκάρτες που έχουν χρησιμοποιηθεί: "
  },
  "search": {
    "searchPlaceholder": "Εισαγάγετε εδώ το κείμενο αναζήτησης.",
    "searchPageLoadedText": "Η σελίδα αποτελεσμάτων αναζήτησης φορτώθηκε και εμφανίζονται __results__ για τον όρο αναζήτησης __searchTerm__",
    "searchDropdownClosedText": "Η σελίδα αποτελεσμάτων αναζήτησης έκλεισε.",
    "searchButtonText": "Αναζήτηση",
    "refinementValueText": "__dataLabel__ (__dataCount__)",
    "searchFailedText": "Δεν είναι δυνατή η εκτέλεση αναζήτησης αυτήν τη στιγμή.",
    "searchDropdownOpenedText": "Η σελίδα αποτελεσμάτων αναζήτησης είναι διαθέσιμη.",
    "productresultsText": "Αποτελέσματα: __startIndex__ - __endIndex__ (από __totalProducts__)",
    "searchLabel": "Αναζήτηση",
    "emptyProductresultsText": "Αποτελέσματα: 0",
    "returnCodeLabel": "Κωδικός επιστροφής",
    "noProductsFound": "Πραγματοποιήσατε αναζήτηση για τον όρο \"__searchterm__\". Δεν βρέθηκαν προϊόντα.",
    "searchText": "Εμφάνιση αποτελεσμάτων για __searchTerm__ ",
    "noProductsFoundNoSearchTerm": "Δεν βρέθηκαν προϊόντα.",
    "priceUnavailable": "Μη διαθέσιμη τιμή",
    "searchresultsText": "Αποτελέσματα: __startIndex__ - __endIndex__ (από __count__)",
    "noMatchesFound": "Δεν βρέθηκαν αντιστοιχίες",
    "showAllResultsText": "Εμφάνιση όλων των αποτελεσμάτων >>",
    "noSearchResultsText": "Δεν εντοπίσαμε αποτελέσματα για τον όρο __searchTerm__."
  },
  "commerceItemStates": {
    "PRE_ORDERED_CI": "Έχει γίνει προπαραγγελία για το στοιχείο",
    "RETURN_REQUESTED_CI": "Η επιστροφή ζητήθηκε για το στοιχείο",
    "PENDING_REMOVE_CI": "Η αίτηση κατάργησης του στοιχείου εκκρεμεί",
    "OUT_OF_STOCK_CI": "Το στοιχείο δεν ήταν διαθέσιμο",
    "REMOVED_CI": "Το στοιχείο καταργήθηκε",
    "DISCONTINUED_CI": "Το στοιχείο καταργήθηκε",
    "FAILED_CI": "Το στοιχείο απέτυχε",
    "NO_ACTION_CI": "Δεν ελήφθη ενέργεια για το στοιχείο",
    "BACK_ORDERED_CI": "Υπάρχει ανεκτέλεστη παραγγελία στο στοιχείο",
    "ITEM_NOT_FOUND_CI": "Το στοιχείο δεν βρέθηκε στο σύστημα αποθέματος",
    "INITIAL_CI": "Προστέθηκε στην παραγγελία",
    "SUBITEM_PENDING_DELIVERY_CI": "Εκκρεμεί η παράδοση του στοιχείου",
    "CANCEL_REQUESTED_CI": "Η ακύρωση ζητήθηκε για το στοιχείο"
  },
  "paymentMethods": {
    "physicalGiftCard": "Δωροκάρτα",
    "inStorePayment": "Πληρωμή στο κατάστημα",
    "onlinePaymentGroup": "Ηλεκτρονική πληρωμή",
    "default": "Προεπιλεγμένη πληρωμή",
    "invoiceRequest": "Πληρωμή τιμολογίου",
    "tokenizedCreditCard": "Πιστωτική κάρτα",
    "externalPaymentGroup": "Εξωτερικό",
    "creditCard": "Πιστωτική κάρτα",
    "giftCertificate": "Δωροεπιταγή",
    "cash": "Πληρωμή με μετρητά",
    "storeCredit": "Πίστωση καταστήματος"
  },
  "orderStates": {
    "PENDING_REMOVE": "Εκκρεμεί αφαίρεση",
    "ALL": "Όλα",
    "PENDING_CUSTOMER_ACTION": "Εκκρεμεί ενέργεια πελάτη",
    "REJECTED_QUOTE": "Αυτή η προσφορά απορρίφθηκε",
    "INCOMPLETE_CANCEL": "Παραγγελία που ακυρώνεται",
    "PROCESSING": "Γίνεται επεξεργασία",
    "PENDING_MERCHANT_ACTION": "Εκκρεμεί ενέργεια εμπόρου",
    "AGENT_REJECTED": "Ακυρώθηκε από αντιπρόσωπο",
    "FAILED_APPROVAL_TEMPLATE": "Η προγραμματισμένη παραγγελία απέτυχε κατά την έγκριση",
    "FAILED": "Απέτυχε",
    "BEING_AMENDED": "Η παραγγελία τροποποιείται",
    "TEMPLATE": "Πρότυπο προγραμματισμένης παραγγελίας",
    "NO_PENDING_ACTION": "Διεκπεραίωση",
    "REMOVED": "Καταργήθηκε",
    "REJECTED": "Απορρίφθηκαν",
    "PENDING_PAYMENT": "Πληρωμή σε εκκρεμότητα",
    "QUOTED": "Αυτή η παραγγελία είναι προσφορά",
    "PENDING_QUOTE": "Αυτή η προσφορά είναι σε εκκρεμότητα",
    "PENDING_CUSTOMER_RETURN": "Εκκρεμεί επιστροφή από πελάτη",
    "PENDING_APPROVAL_TEMPLATE": "Προγραμματισμένη παραγγελία με εκκρεμότητα έγκρισης",
    "INCOMPLETE": "Μη ολοκληρωμένο",
    "QUOTE_REQUEST_FAILED": "Το αίτημα προσφοράς δεν ήταν επιτυχές.",
    "PENDING_PAYMENT_TEMPLATE": "Πρότυπο πληρωμής σε εκκρεμότητα",
    "PENDING_APPROVAL": "Σε εκκρεμότητα έγκρισης",
    "RESERVED_INVENTORY_SG": "Το απόθεμα είναι δεσμευμένο για το είδος",
    "QUEUED": "Υποβλήθηκε",
    "SUSPENDED": "Αναστάλθηκε",
    "PENDING_AGENT_APPROVAL": "Εκκρεμεί έγκριση από αντιπρόσωπο",
    "FAILED_APPROVAL": "Η έγκριση απέτυχε",
    "SUBMITTED": "Υποβλήθηκε για διεκπεραίωση",
    "APPROVED": "Εγκρίθηκαν"
  },
  "checkout": {
    "orderTotalText": "Σύνολο παραγγελίας:",
    "giftCardPinText": "Κωδικός PIN δωροκάρτας",
    "dynamicPropertyRequired": "Το πεδίο __fieldName__ απαιτείται",
    "cityStatePostalCode": "__city__, __state__. __postalCode__",
    "paymentErrorMsg": "Σφάλμα κατά την επεξεργασία της πληρωμής. Δοκιμάστε ξανά.",
    "orderSubmissionFailed": "Η υποβολή παραγγελίας απέτυχε.",
    "selectShippingOptionsText": "Επιλέξτε τη μέθοδο αποστολής",
    "voidPaymentConfirmationPopUpText": "Πρόκειται να ακυρώσετε μια μη εξουσιοδοτημένη πληρωμή. Ενδέχεται να απαιτούνται πρόσθετες πληρωμές. Θέλετε σίγουρα να συνεχίσετε;",
    "processCompletionFailed": "Η παραγγελία σας δεν πραγματοποιήθηκε αυτήν τη στιγμή. Δοκιμάστε ξανά.",
    "voidPaymentText": "Ακύρωση πληρωμής",
    "invalidProfileForCheckout": "Πρέπει πρώτα να συνδεθείτε προτού μπορέσετε να ολοκληρώσετε την αγορά σας.",
    "orderCouponDisplayText": "* __description__ - __code__",
    "giftCardPinRequired": "Ο κωδικός PIN δωροκάρτας είναι υποχρεωτικός.",
    "shippingAddressRequired": "Καταχωρίστε μια διεύθυνση αποστολής",
    "invalidShippingMethod": "Καθορίστηκε μη έγκυρη μέθοδος αποστολής.",
    "invalidOrderDetails": "Παρουσιάστηκε σφάλμα. Ελέγξτε τη διεύθυνση αποστολής",
    "itemNameText": "Όνομα",
    "removeItemText": "Κατάργηση",
    "fetchingShippingMethodsText": "Ανάκτηση μεθόδων αποστολής για τη διεύθυνση",
    "noShippingMethodsText": "Δεν υπάρχουν διαθέσιμες μέθοδοι αποστολής για τη διεύθυνση προορισμού.",
    "salesTaxText": "Φόρος πωλήσεων:",
    "shippingMethodValueText": "__shippingMethod__:",
    "shippingDiscountText": "Εκπτώσεις αποστολής:",
    "toBeChargedPaymentText": " προς χρέωση σε __type__ __number__",
    "OrderDiscountDesc": "* __discountDesc__",
    "paymentExpiredMsg": "Η πληρωμή έληξε. Δοκιμάστε ξανά.",
    "paymentRemovedText": "Η πληρωμή σας καταργήθηκε.",
    "quantityText": "Ποσότητα",
    "noShippingSelectedText": "Δεν έχει επιλεγεί μέθοδος αποστολής.",
    "skuUnavailableText": "Η ΜΔΑ δεν είναι διαθέσιμη",
    "placeOrderRegisterWarnMsg": "Δεν είναι δυνατή η τοποθέτηση της παραγγελίας πριν από την εγγραφή χρήστη",
    "removeCouponLinkReadText": "Αφαίρεση κουπονιού",
    "shippingOptionsText": "Επιλογές αποστολής",
    "shippingMethodText": "Μέθοδος αποστολής:",
    "discountText": "Εκπτώσεις*:",
    "itemText": "Είδος",
    "reapplyGIftCards": "Οι δωροκάρτες που εισαγάγατε δεν έχουν εφαρμοστεί στην παραγγελία σας. Εισαγάγετε ξανά τις δωροκάρτες σας.",
    "chargedPaymentText": " Χρεώθηκε σε __type__ __number__",
    "orderCannotBeUpdatePendingPaymentText": "Αυτή η παραγγελία κλειδώθηκε. Τυχόν ενημερώσεις, εκτός των πληροφοριών πληρωμής, σε αυτήν θα απορριφθούν.",
    "selectShippingMethodText": "Επιλογή μεθόδου αποστολής",
    "subtotalText": "Μερικό σύνολο:",
    "pricingError": "Δεν είναι δυνατός ο υπολογισμός του κόστους αποστολής και φόρου. Ελέγξτε τη διεύθυνση αποστολής.",
    "invalidSKUError": "Το ΜΔΑ δεν υπάρχει. Εισαγάγετε έγκυρο ΜΔΑ.",
    "shipToText": "Αποστολή σε:",
    "paymentDeclinedMsg": "Η πληρωμή απορρίφθηκε. Δοκιμάστε ξανά.",
    "cityPostalCode": "__city__. __postalCode__",
    "fullName": "__firstName__ __lastName__",
    "giftCardNumberText": "Αριθμός δωροκάρτας",
    "itemDetailsText": "Στοιχεία είδους",
    "paymentReversalFailed": "Δεν είναι δυνατή η επεξεργασία της παραγγελίας εξαιτίας κάποιου τεχνικού προβλήματος.",
    "invalidShippingAddress": "Καθορίστηκε μη έγκυρη διεύθυνση αποστολής.",
    "placeHolderItemsErrorMsg": "Δεν έχετε επιλέξει δωρεάν προϊόν. Μπορείτε να επιστρέψετε στο καλάθι και να επιλέξετε το δώρο σας ή να συνεχίσετε με την ολοκλήρωση της πληρωμής. Σημείωση: Αν συνεχίσετε με την ολοκλήρωση της πληρωμής, θα καταργηθούν τα μη επιλεγμένα δώρα από το καλάθι και δεν θα επιτρέπεται η περαιτέρω πρόσβαση σε αυτά.",
    "couponDisplayText": "__description__ - __code__",
    "itemTotalText": "Σύνολο είδους",
    "giftCardNumberRequired": "Ο αριθμός δωροκάρτας είναι υποχρεωτικός.",
    "shippingMethodsErrorMsg": "Βεβαιωθείτε ότι έχετε συμπληρώσει όλα τα πεδία για την αποστολή και ότι έχετε διορθώσει τυχόν μη έγκυρες εγγραφές.",
    "deductedPaymentText": " Αφαιρέθηκε από το υπόλοιπο __type__"
  },
  "userSsoLogin": {
    "ssoLoginLinkText": "Σύνδεση μέσω καθολικής σύνδεσης"
  },
  "product": {
    "optionRequiredMsg": "Η επιλογή __optionName__ απαιτείται",
    "volumePriceTableSummaryText": "Τιμολόγηση βάσει όγκου",
    "notifyDialogTitle": "Να ειδοποιηθώ",
    "notifyInstructions": "Εισαγάγετε τη διεύθυνση ηλεκτρονικού ταχυδρομείου παρακάτω και θα σας ειδοποιήσουμε μόλις υπάρξει ξανά απόθεμα για αυτό το είδος.",
    "configurableProductError": "Δεν μπορείτε να προσθέσετε τα ακόλουθα είδη στο καλάθι επειδή απαιτείται να επιλέξετε επιλογές διαμόρφωσης: __displayName__ ",
    "optionHasNext": "$t(ns.common:resources.option),",
    "notifySuccess": "Ευχαριστούμε για το αίτημά σας. Θα σας στείλουμε ένα μήνυμα ηλεκτρονικού ταχυδρομείου μόλις υπάρξει ξανά απόθεμα.",
    "optionCaption": "Επιλέξτε __optionName__ ...",
    "optionLast": "$t(ns.common:resources.option)",
    "skuOutOfStockError": "Η __sku__ έχει εξαντληθεί.",
    "outOfStockError": "Τα ακόλουθα είδη δεν προστέθηκαν στο καλάθι σας επειδή δεν υπάρχει απόθεμα: __displayName__ ",
    "notifyMeText": "Να μου σταλεί μήνυμα ηλεκτρονικού ταχυδρομείου μόλις υπάρξει απόθεμα",
    "notifyOutOfStock": "Αυτό το είδος εξαντλήθηκε.",
    "volumePriceQuantitySeparator": "__min__ - __max__",
    "volumePriceQuantityGreater": "__min__+",
    "productNotFoundError": "Τα ακόλουθα είδη δεν προστέθηκαν στο καλάθι σας επειδή δεν διατίθενται πλέον για πώληση: __displayName__ ",
    "noneOfTheItemsCanBeAdded": "Κανένα από τα είδη σε αυτήν την παραγγελία δεν μπορούν να προστεθούν στο καλάθι.",
    "skuNotFoundError": "Η __sku__ δεν βρέθηκε",
    "configurationDetails": "Λεπτομέρειες",
    "notifyFailed": "Δυστυχώς, δεν είναι δυνατή η επεξεργασία του αιτήματός σας αυτήν τη στιγμή.",
    "priceText": "Τιμή",
    "option": "__optionName__: __optionValue__",
    "shippingSurchargeText": "Επιβάρυνση αποστολής: "
  },
  "selfRegistrationRequest": {
    "requesterOrgText": "Σχετικός υπάρχον λογαριασμός",
    "registerText": "Εγγραφή",
    "phoneNumberMandatoryText": "Ο αριθμός τηλεφώνου είναι υποχρεωτικός.",
    "requesterCommentMaxLengthText": "Το σχόλιο του αιτούντα δεν μπορεί να υπερβαίνει τους 1000 χαρακτήρες.",
    "phoneNumberText": "Αριθμός τηλεφώνου",
    "zipCodeText": "Ταχυδρομικός κώδικας",
    "companyNameText": "Όνομα εταιρείας",
    "submitText": "Υποβολή",
    "addressOneText": "Διεύθυνση 1",
    "receiveEmailText": "Λήψη μηνύματος ηλεκτρονικού ταχυδρομείου",
    "requesterCommentText": "Σχόλιο αιτούντος",
    "stateMandatoryText": "Ο νομός είναι υποχρεωτικός.",
    "newBusinessAccountText": "Δημιουργία νέου επιχειρηματικού λογαριασμού",
    "zipCodeInvalid": "Μη έγκυρη εγγραφή. Εισαγάγετε έναν έγκυρο ταχυδρομικό κώδικα.",
    "countryText": "Χώρα",
    "postalMandatoryText": "Ο ταχυδρομικός κώδικας είναι υποχρεωτικός.",
    "countryMandatoryText": "Η χώρα είναι υποχρεωτική.",
    "phoneNumberInvalid": "Ο αριθμός τηλεφώνου δεν είναι έγκυρος.",
    "accountNameText": "Όνομα λογαριασμού",
    "approverCommentMaxLengthText": "Το σχόλιο υπευθύνου έγκρισης δεν μπορεί να υπερβαίνει τους 1000 χαρακτήρες.",
    "invalidInput": "Μη έγκυρα δεδομένα εισόδου",
    "thankYouMessage": "Ευχαριστούμε για την υποβολή αιτήματος εγγραφής. Θα ελέγξουμε το αίτημά σας και θα σας ειδοποιήσουμε για τα αποτελέσματα μέσω email. Θα επικοινωνήσουμε μαζί σας σε περίπτωση που χρειαστούμε επιπλέον πληροφορίες.",
    "cityMandatoryText": "Η πόλη είναι υποχρεωτική.",
    "registerNewAccountLinkText": "Εγγραφή για έναν λογαριασμό",
    "thankYouText": "Σας ευχαριστούμε",
    "addressOneMandatoryText": "Η διεύθυνση 1 είναι υποχρεωτική.",
    "existingBusinessAccountText": "Συμμετοχή σε υπάρχοντα επιχειρηματικό λογαριασμό",
    "stateText": "Νομός/Επαρχία",
    "addressTwoText": "Διεύθυνση 2",
    "cityText": "Πόλη"
  },
  "social": {
    "socialFacebookShareProductDescriptionText": "Αγοράστε το προϊόν __productName__ [Το όνομα του καταστήματός σας]",
    "socialFacebookShareWishlistDescriptionText": "Δείτε τα είδη τα οποία ο χρήστης __wishListOwnerFirstname__ __wishListOwnerLastname__ ενδιαφέρεται να αγοράσει (ή έχει αγοράσει ως δώρο!). Ανακαλύψτε νέα προϊόντα και ακόμη περισσότερα.",
    "socialFacebookShareWishlistTitleText": "Ανατρέξτε στη λίστα επιθυμιών __wishlistName__ του χρήστη __wishListOwnerFirstname__",
    "socialFacebookInviteMessageText": "Συμμετάσχετε στη λίστα επιθυμιών του χρήστη __ownername__. Ως μέλος, μπορείτε να μοιράζεστε ιδέες, να προσθέτετε προϊόντα και σχόλια και πολλά άλλα!"
  },
  "userForgottenPassword": {
    "forgotPwdPart2": "Αυτό πρέπει να ενημερωθεί την επόμενη φορά που θα συνδεθείτε.",
    "forgotPwdPart1": "Εισαγάγετε τη διεύθυνση ηλεκτρονικού ταχυδρομείου σας, για να λάβετε το νέο σας προσωρινό κωδικό πρόσβασης.",
    "emailCancelText": "Άκυρο",
    "accountIdText": "Αναγνωριστικό λογαριασμού",
    "resendRequestText": "Επανάληψη αποστολής αιτήματος",
    "forgotPwdMessage": "Ένας νέος προσωρινός κωδικός πρόσβασης έχει αποσταλεί στη διεύθυνση ηλεκτρονικού ταχυδρομείου σας, μαζί με οδηγίες για την επαναφορά του κωδικού πρόσβασης.",
    "sendRequestText": "Αποστολή αίτησης",
    "updatePasswordSuccessMessage": "Ο κωδικός πρόσβασης ενημερώθηκε με επιτυχία.",
    "updatePasswordErrorMessage": "Παρουσιάστηκε σφάλμα κατά την ενημέρωση του κωδικού πρόσβασης. Δοκιμάστε ξανά.",
    "resetPasswordMessage": "Το αίτημά σας για ορισμό νέου κωδικού πρόσβασης έχει σταλεί. Στο λογαριασμό σας ηλεκτρονικού ταχυδρομείου έχει σταλεί ένας δεσμός νέου κωδικού πρόσβασης για να μπορέσετε να συνδεθείτε ξανά.",
    "forgotPasswordHelpText": "Πληκτρολογήστε τη διεύθυνση ηλεκτρονικού ταχυδρομείου σας στην οποία θα λάβετε έναν ασφαλή δεσμό για να ορίσετε νέο κωδικό πρόσβασης.",
    "resetPwdText": "Επαναφορά κωδικού πρόσβασης",
    "updatePasswordText": "Ενημέρωση κωδικού πρόσβασης",
    "forgotPwdText": "Ξεχάσατε τον κωδικό πρόσβασης",
    "forgotPasswordLinkText": "Ξεχάσατε τον κωδικό πρόσβασης;",
    "emailPasswordText": "Αποστολή κωδικού πρόσβασης μέσω ηλεκτρονικού ταχυδρομείου",
    "ssoLoginText": "Καθολική σύνδεση"
  },
  "userDetails": {
    "wishlist": "Λίστα επιθυμιών",
    "emailAddressText": "Διεύθυνση ηλεκτρονικού ταχυδρομείου",
    "forgottenPasswordModalClosedText": "Η σελίδα ξεχασμένου κωδικού πρόσβασης είναι κλειστή.",
    "headercreateNewPassword": "Δημιουργία νέου κωδικού πρόσβασης",
    "createNewPwdMessage": "Ο κωδικός πρόσβασης ενημερώθηκε με επιτυχία.",
    "emailAddressRequired": "Η διεύθυνση ηλεκτρονικού ταχυδρομείου είναι υποχρεωτική. ",
    "createNewPasswordModalOpenedText": "Η σελίδα δημιουργίας νέου κωδικού πρόσβασης είναι ανοιχτή.",
    "networkConnectivityError": "Απέτυχε η φόρτωση κάποιων δυνατοτήτων λόγω προβλήματος σύνδεσης στο Internet. Εάν το πρόβλημα εξακολουθεί, δοκιμάστε να φορτώσετε τη σελίδα ξανά.",
    "checkoutCreateAccountText": "Δημιουργώντας έναν λογαριασμό, θα μπορείτε να κάνετε αγορές πιο γρήγορα, να ενημερώνεστε για την κατάσταση μιας παραγγελίας και να παρακολουθείτε τις παραγγελίες που έχετε κάνει.",
    "createNewPasswordError": "Ο κωδικός πρόσβασής σας έχει λήξει. Ενημερώστε τον προτού συνδεθείτε.",
    "welcome": "Καλώς ήρθατε __userName__",
    "cityRequired": "Η πόλη είναι υποχρεωτική.",
    "invalidOrganization": "Ο επιλεγμένος λογαριασμός δεν είναι έγκυρος οργανισμός για τον συνδεδεμένο χρήστη.",
    "passwordText": "Κωδικός πρόσβασης",
    "noAccountText": "Δεν έχετε λογαριασμό;",
    "emailAddressInvalid": "Μη αποδεκτή καταχώρηση. Εισαγάγετε μια αποδεκτή διεύθυνση ηλεκτρονικού ταχυδρομείου, π.χ. john@smith.com.",
    "accountAlreadyExists": "Υπάρχει ήδη ένας λογαριασμός για αυτήν τη διεύθυνση ηλεκτρονικού ταχυδρομείου. Εισαγάγετε διαφορετική διεύθυνση ηλεκτρονικού ταχυδρομείου.",
    "lastNameRequired": "Το επώνυμο είναι υποχρεωτικό. ",
    "lastNameText": "Επώνυμο",
    "registrationModalClosedText": "Η σελίδα εγγραφής είναι κλειστή.",
    "firstNameRequired": "Το όνομα είναι υποχρεωτικό. ",
    "newConfirmPasswordText": "Επιβεβαίωση νέου κωδικού πρόσβασης",
    "filterText": "Αναζήτηση για λογαριασμό",
    "confirmPasswordText": "Επιβεβαίωση κωδικού πρόσβασης",
    "marketingMailsText": "Θέλω να λαμβάνω ενημερώσεις μέσω ηλεκτρονικού ταχυδρομείου.",
    "loginModalOpenedText": "Η σελίδα σύνδεσης άνοιξε.",
    "addressLine1Required": "Η διεύθυνση 1 είναι υποχρεωτική.",
    "maxlengthValidationMsg": "Μη αποδεκτή καταχώρηση. Μην υπερβαίνετε τους __maxLength__ χαρακτήρες.",
    "loginLinkText": "Σύνδεση",
    "pickupDetailsErrorMsg": "Οι λεπτομέρειες παραλαβής πρέπει να παραμένουν οι ίδιες για κάθε στοιχείο που παραλαμβάνεται στο επιλεγμένο κατάστημα.",
    "resetPasswordModalClosedText": "Η σελίδα επαναφοράς κωδικού πρόσβασης είναι κλειστή.",
    "updatePasswordModalOpenedText": "Η σελίδα ενημέρωσης κωδικού πρόσβασης είναι ανοιχτή.",
    "companyNameRequiredText": "Η επωνυμία εταιρείας είναι υποχρεωτική.",
    "localeRequired": "Οι τοπικές ρυθμίσεις είναι υποχρεωτικές. ",
    "oldPasswordsDoNotMatch": "Εσφαλμένη τιμή προηγούμενου κωδικού πρόσβασης.",
    "buttonCreateAccount": "Δημιουργία λογαριασμού",
    "phoneNumberRequiredText": "Ο αριθμός τηλεφώνου είναι υποχρεωτικός.",
    "buttonLogin": "Σύνδεση",
    "accountError": "Παρουσιάστηκε πρόβλημα με το λογαριασμό σας. Επικοινωνήστε με το διαχειριστή του λογαριασμού σας.",
    "emailInfoText": "Με αυτόν τον τρόπο θα σας στείλουμε την επιβεβαίωση της παραγγελίας σας και τις ενημερώσεις για την αποστολή.",
    "passwordUnmatched": "Οι κωδικοί πρόσβασης που εισαγάγατε δεν συμφωνούν. Προσπαθήστε ξανά. ",
    "companyNameRequired": "Η επωνυμία εταιρείας είναι υποχρεωτική. ",
    "headerCreateAccount": "Δημιουργία λογαριασμού",
    "newPasswdText": "Νέος κωδικός πρόσβασης",
    "titleError": "Σφάλμα",
    "updatePasswordModalClosedText": "Η σελίδα ενημέρωσης κωδικού πρόσβασης είναι κλειστή.",
    "maxLengthEmailAdd": "Μη αποδεκτή καταχώρηση. Μην υπερβαίνετε τους __maxLength__ χαρακτήρες",
    "titleLogin": "Σύνδεση",
    "passwordRequired": "Ο κωδικός πρόσβασης είναι υποχρεωτικός. ",
    "firstNameText": "Όνομα",
    "personalizationConsentText": "Εμφάνιση σχετικού περιεχομένου και προσφορών τοποθεσίας κατά την περιήγηση.",
    "registrationModalOpenedText": "Η σελίδα εγγραφής είναι ανοιχτή.",
    "nickNameRequiredText": "Το ψευδώνυμο είναι υποχρεωτικό.",
    "currentPasswordRequired": "Ο τρέχων κωδικός πρόσβασης είναι υποχρεωτικός.",
    "createNewPasswordModalClosedText": "Η σελίδα δημιουργίας νέου κωδικού πρόσβασης είναι κλειστή.",
    "forgottenPasswordModalOpenedText": "Η σελίδα ξεχασμένου κωδικού πρόσβασης είναι ανοιχτή.",
    "confirmPasswordRequired": "Εισαγάγετε ξανά τον κωδικό πρόσβασης. ",
    "createAccountText": "Δημιουργία λογαριασμού",
    "createAccountSuccess": "Ο λογαριασμός σας δημιουργήθηκε. Ευχαριστούμε για την εγγραφή.",
    "loginModalClosedText": "Η σελίδα σύνδεσης έκλεισε.",
    "updateSuccessMsg": "Η ενημέρωση αποθηκεύτηκε με επιτυχία.",
    "loginRequired": "Η σύνδεση είναι υποχρεωτική. ",
    "logoutLinkText": "Αποσύνδεση",
    "resetPasswordModalOpenedText": "Η σελίδα επαναφοράς κωδικού πρόσβασης είναι ανοιχτή.",
    "loginError": "Η σύνδεση δεν είναι επιτυχής. Τα στοιχεία που εισαγάγατε δεν συμφωνούν με τα αρχεία μας. Προσπαθήστε ξανά.",
    "checkoutErrorMsg": "Βεβαιωθείτε ότι έχετε συμπληρώσει όλα τα υποχρεωτικά πεδία και ότι έχετε διορθώσει τυχόν μη αποδεκτές καταχωρήσεις.",
    "reloadPage": "Επαναφόρτωση",
    "myAccount": "Ο λογαριασμός μου",
    "currentPasswordText": "Τρέχων κωδικός πρόσβασης"
  },
  "orderDetails": {
    "organizationDisaccoiatedErrorText": "Ο χρήστης δεν έχει συσχετιστεί με το λογαριασμό __account__. Δεν επιτρέπεται καμία λειτουργία σε αυτή την παραγγελία.",
    "ordersListingErrorText": "ERROR",
    "organizationInactiveErrorText": "Ο λογαριασμός __account__ είναι προς το παρόν ανενεργός. Δεν επιτρέπεται καμία λειτουργία σε αυτή την παραγγελία.",
    "userNotAssociatedToAnyAccountText": "Ο χρήστης δεν έχει συσχετιστεί με κανένα λογαριασμό. Δεν επιτρέπεται καμία λειτουργία σε αυτή την παραγγελία.",
    "symbolAndAmountText": "__currencySymbol____amount__",
    "mixedCurrencyAmountText": "__primaryCurrencySymbol__ __primaryCurrencyAmount__+__secondaryCurrencySymbol____secondaryCurrencyAmount__",
    "orderNotAssociatedToAnyAccountText": "Η παραγγελία δεν έχει συσχετιστεί με κανένα λογαριασμό. Δεν επιτρέπεται καμία λειτουργία σε αυτή την παραγγελία."
  },
  "storeText": {
    "goToPreviousPagePaginationSymbol": "<",
    "wishlistPageLoadedText": "Φορτώθηκε η σελίδα λίστας επιτρεπόμενων.",
    "invalidOrderState": "Μη έγκυρη κατάσταση παραγγελίας.",
    "goToLastPagePaginationSymbol": ">>",
    "priceRangeText": "Εύρος τιμών",
    "goToNextPagePaginationSymbol": ">",
    "septemberText": "Σεπτέμβριος",
    "goToFirstPagePaginationSymbol": "<<",
    "customTextNotFound": "[Το προσαρμοσμένο κείμενο λείπει]",
    "januaryText": "Ιανουάριος",
    "marchText": "Μάρτιος",
    "novemberText": "Νοέμβριος",
    "pageLoadedText": "Η σελίδα __page__ έχει φορτωθεί.",
    "decemberText": "Δεκέμβριος",
    "removeConfigurableMsg": "Η αλλαγή νομίσματος καταργεί όλα τα διαμορφωμένα είδη από το καλάθι σας. Θέλετε να συνεχίσετε;",
    "augustText": "Αύγουστος",
    "loadingText": "Φόρτωση...",
    "productPageLoadedText": "Η σελίδα λεπτομερειών προϊόντος για το προϊόν __product__ έχει φορτωθεί.",
    "mayText": "Μάιος",
    "categoryText": "Κατηγορία",
    "aprilText": "Απρίλιος",
    "juneText": "Ιούνιος",
    "octoberText": "Οκτώβριος",
    "julyText": "Ιούλιος",
    "februaryText": "Φεβρουάριος",
    "categoryPageLoadedText": "Η σελίδα συλλογής για τη συλλογή __collection__ έχει φορτωθεί"
  },
  "miniCart": {
    "cartDropDownText_plural": "__count__ είδη - __currency____totalPrice__",
    "miniCartOpenedText": "Άνοιξε το μικρό καλάθι αγορών.",
    "freeProductText": "Δωρεάν προϊόν",
    "miniCartClosedText": "Το μικρό καλάθι αγορών έκλεισε.",
    "cartDropDownText": "__count__ είδος - __currency____totalPrice__"
  },
  "userPasswordPolicies": {
    "passwordPoliciesErrorText": "Ο κωδικός πρόσβασης που καταχωρήθηκε δεν συμμορφώνεται με την πολιτική κωδικών πρόσβασης. Προσπαθήστε ξανά.",
    "embeddedAssistanceUseMixedCase": "περιέχει κεφαλαίους και πεζούς χαρακτήρες",
    "embeddedAssistanceNotInPreviousNPasswords": "δεν έχει χρησιμοποιηθεί προηγουμένως",
    "embeddedAssistancePreText": "Πρέπει να βεβαιωθείτε ότι ο κωδικός πρόσβασής σας:",
    "embeddedAssistanceCannotUseUsernameText": "διαφέρει από το όνομα χρήστη",
    "embeddedAssistanceUseNumber": "περιλαμβάνει έναν αριθμό",
    "embeddedAssistanceMinPasswordLengthText": "αποτελείται από τουλάχιστον __min__ χαρακτήρες",
    "embeddedAssistanceUseSymbol": "περιλαμβάνει έναν από τους ακόλουθους χαρακτήρες συμβόλων __chars__"
  },
  "return": {
    "minimumValueMsg": "Μη αποδεκτή ποσότητα. Εισαγάγετε 1 ή μεγαλύτερο αριθμό.",
    "noReturnableItem": "Τα είδη στην παραγγελία σας δεν έχουν δυνατότητα επιστροφής",
    "invalidQuantityMsg": "Μη έγκυρη ποσότητα",
    "someitemsDeleted": "Ορισμένα είδη διαγράφηκαν.",
    "returnRequestFailed": "Το αίτημα επιστροφής δεν ήταν επιτυχές.",
    "returnRequestSuccess": "Το αίτημα επιστροφής \"__requestId__\" υποβλήθηκε. Εστάλη μήνυμα ηλεκτρονικού ταχυδρομείου στο \"__emailId__\"",
    "invalidQuantity": "Μη έγκυρη ποσότητα. Δεν επιτρέπεται περισσότερο από __stockLimit__.",
    "itemOutOfStockMessage": "Το επιλεγμένο είδος έχει εξαντληθεί.",
    "invalidReturnQuantity": "Η ποσότητα επιστροφής αυτού του είδους πρέπει να είναι μεγαλύτερη από μηδέν και δεν μπορεί να υπερβαίνει την αρχική ποσότητα παραγγελίας ή την αρχική ποσότητα παραγγελίας μείον την ποσότητα που συσχετίζεται με τυχόν προηγούμενα αιτήματα επιστροφής.",
    "noItemSelectError": "Πρέπει να επιλέξετε αιτία επιστροφής και ποσότητα, για τουλάχιστον ένα είδος.",
    "allitemssDeleted": "Όλα τα είδη στην παραγγελία διαγράφηκαν."
  }
}