{
  "imports": [
    "category",
    "categoryId",
    "dimensionId",
    "productTypes"
  ],
  "translations": [
    {
      "name": "ob-product-listing-widget",
      "language": "en"
    },
    {
      "name": "ob-product-listing-widget",
      "language": "de"
    },
    {
      "name": "ob-product-listing-widget",
      "language": "es"
    },
    {
      "name": "ob-product-listing-widget",
      "language": "en_US"
    },
    {
      "name": "ob-product-listing-widget",
      "language": "fr"
    },
    {
      "name": "ob-product-listing-widget",
      "language": "sv"
    }
  ],
  "jsEditable": true,
  "minWidth": 1,
  "globalEnabled": false,
  "pageTypes": [
    "category",
    "searchResults"
  ],
  "config": {
    "blockSize": "60",
    "displayOptionsSection": "",
    "fields": "",
    "gridWidth": "4",
    "isScrollEnabled": false,
    "isViewModelCacheEnabled": false,
    "listType": "product",
    "productsPerPage": "12",
    "shouldUseStyleBased": true,
    "showListViewOption": false,
    "showResultsPerPageOption": true,
    "viewModelCacheLimit": "3",
    "webApplicationConfigSection": ""
  }
}