{
  "shippingItemRelationshipStates": {
    "PARTIAL_BACK_ORDERED_SG": "Mums krājumā pašlaik ir __quantity__ prece(s). Atlikušās preces tiks piegādātas vēlāk kā neizpildītais pasūtījums.",
    "PENDING_SUBITEM_DELIVERY_SG": "Šis vienums gaida atkarīgos pakārtotos vienumus no krājumiem",
    "NO_ACTION_SG": "Šai pozīcijai nav veikta nekāda darbība",
    "ITEM_NOT_FOUND_SG": "Vienums netika atrasts krājumu sistēmā",
    "PARTIAL_PRE_ORDERED_SG": "Mums krājumā pašlaik ir __quantity__ prece(s). Atlikušās preces tiks piegādātas vēlāk kā iepriekšējs pasūtījums.",
    "PENDING_RETURN_SG": "Vienums gaida atgriešanas pieprasījumu",
    "CANCEL_REQUESTED_SG": "Pozīcijai ir pieprasīta atcelšana kā daļa no atcelšanas pasūtījuma",
    "RETURNED_SG": "Vienums tika atgriezts",
    "FAILED_SG": "Vienums neizdevās",
    "PENDING_SHIPMENT": "Gaida nosūtīšanu",
    "RETURN_REQUESTED_SG": "Pozīcijai ir pieprasīta atgriešana kā daļa no atcelšanas pasūtījuma",
    "OUT_OF_STOCK_SG": "Vienums nebija pieejams",
    "PRE_ORDERED_SG": "Šī prece pašlaik nav pieejama krājumā un ir iekļauta iepriekšējā pasūtījumā",
    "DISCONTINUED_SG": "Vienums tika pārtraukts",
    "INITIAL_SG": "Vienums tika inicializēts nosūtīšanas grupā",
    "PENDING_DELIVERY_SG": "Vienums ir gatavs nosūtīšanai",
    "PENDING_REMOVE_SG": "Vienums gaida noņemšanas pieprasījumu",
    "DELIVERED_SG": "Vienums tika piegādāts",
    "BACK_ORDERED_SG": "Šī prece pašlaik nav pieejama krājumā un ir iekļauta neizpildītajā pasūtījumā",
    "REMOVED_SG": "Šis vienums tika noņemts no nosūtīšanas grupas"
  },
  "purchaselist": {
    "purchaseListModalCreateList": "Izveidot sarakstu",
    "CreateNewPurchaseListSuccessMsg": "Iepirkumu saraksts ir izveidots, un jūsu produkts ir pievienots",
    "CreateNewPurchaseListErrorMsg": "Iepirkumu saraksta izveide neizdevās",
    "maxAllowedListNameLength": "Nosaukumā ir jābūt ne vairāk par 256 rakstzīmēm",
    "minQuantityCheck": "Daudzumam ir jābūt lielākam par 0",
    "newPurchaseListModalTitle": "Izveidot iepirkumu sarakstu",
    "productAddToPurchaseListText": "Pievienot iepirkumu sarakstam",
    "SuccessMsg": "__productname__ ir pievienots jūsu sarakstam __purchaselistname__",
    "myPurchaseListText": "Mani iepirkumu saraksti",
    "purchaseListModalCancel": "Atcelt",
    "listNameMandatoryText": "Saraksta nosaukums ir obligāts",
    "createNewPurchaseListText": "Izveidot iepirkumu sarakstu",
    "validQuantityCheck": "Ievadiet derīgu daudzumu",
    "productAddError": "Atlasīt noliktavas vienības opcijas",
    "purchaseListNameText": "Iepirkumu saraksta nosaukums",
    "emptyCheck": "Daudzums nedrīkst būt tukšs",
    "productAddedToPurchaseListText": "Pievienots",
    "listNameText": "Saraksta nosaukums",
    "successMsgPurchaseListName": "__purchaselistname__",
    "successMsgProductName": "__productname__ ir pievienots jūsu"
  },
  "editOrder": {
    "fetchOrderDetailsFailedMessage": "Neizdevās izgūt detalizētu informāciju par jauno izveidoto pasūtījumu.",
    "editOrderErrorHeader": "Neizdevās pabeigt pasūtījumu.",
    "copyOrderFailureMessage": "No rediģētā pasūtījuma neizdevās izveidot jaunu pasūtījumu.",
    "initiateAmendFailed": "Neizdevās sākt pasūtījuma rediģēšanu",
    "cancelOrderErrorHeader": "Pasūtījuma atcelšanas kļūda"
  },
  "buttonLabels": {
    "continueText": "Turpināt",
    "buttonSave": "Saglabāt",
    "escapeKeyText": "ESC",
    "buttonCancel": "Atcelt",
    "yesText": "Jā",
    "cancelText": "Atcelt",
    "noText": "Nē",
    "backLink": "Atpakaļ",
    "closeText": "Aizvērt",
    "confirmText": "Apstiprināt",
    "okText": "Labi",
    "backLinkAltText": "Atpakaļ pie iepriekšējās lapas"
  },
  "cancelOrder": {
    "cancelOrderSuccess": "Jūsu pasūtījums ir atcelts.",
    "cancelOrderFail": "Nevar atcelt. Jūsu pasūtījums nav atcelts.",
    "enterCancelReason": "Atcelšanas iemesls ir obligāts."
  },
  "paymentGroupStates": {
    "AUTHORIZE_FAILED_PG": "Autorizācija neizdevās",
    "PAYMENT_REQUEST_ACCEPTED_PG": "Maksājuma pieprasījums ir pieņemts",
    "SETTLED_PG": "Par maksām ir veikts norēķins",
    "AUTHORIZED_PG": "Autorizācija izdevās",
    "INITIAL_PG": "Maksājumu grupa tika inicializēta",
    "CREDIT_FAILED_PG": "Neizdevās kreditēt",
    "REMOVED_PG": "Maksājumu grupa tika noņemta",
    "PENDING_AUTHORIZATION_PG": "Neapstiprināta autorizācija",
    "PAYMENT_DEFERRED_PG": "Maksājums ir atlikts",
    "SETTLE_FAILED_PG": "Līdzekļu norēķins neizdevās",
    "PAYMENT_REQUEST_FAILED_PG": "Maksājuma pieprasījums neizdevās"
  },
  "dynamicProperties": {
    "additionalInfoText": "Papildinformācija",
    "internalProperties": "Iekšējie rekvizīti"
  },
  "onBehalfOf": {
    "shoppingAsText": "Iepirkšanās kā",
    "brandLabel": "Tirdzniecības mākoņpakalpojums"
  },
  "cart": {
    "quantityNotFullyAllocated": "Vienuma daudzums grozā nav pilnībā piešķirts nosūtīšanas grupām.",
    "anonymousAccessControlError": "Lūdzu, piesakieties vietnē ar savu lietotāja ID un paroli.",
    "outOfStockMsg": "Šī prece vairs nav krājumā. Vai izņemt šo preci no jūsu groza?",
    "availabilityDateText": "Pieejams ",
    "backOrderText": "Iekļauts neizpildītajā pasūtījumā - ",
    "quantityAllocationExceeded": "Nosūtīšanas grupām piešķirtais vienuma daudzums pārsniedz vienuma daudzumu grozā.",
    "productNameHasNext": "__productName__, ",
    "partialBackOrderMsg": "Mums krājumā pašlaik ir __stockLimit__ prece(s). Tomēr jūs varat tagad veikt pasūtījumu visam ievadītajam daudzumam, un atlikušās preces tiks piegādātas vēlāk kā neizpildītais pasūtījums.",
    "volumePricedAddonError": "Šī(s) prece(s) ir jāizņem no jūsu groza, jo tā(s) neatbilst cenas kritērijiem: __productNames__.",
    "backOrderedText": "Preci(es) iekļauta(as) neizpildītā pasūtījumā",
    "freeProductText": "Bezmaksas produkts",
    "createOrderSiteLink": "Jauna",
    "preOrderedText": "Prece(es) ir pasūtītas iepriekš",
    "accountsCompleteOrderDetailText": "Skatīt groza __count__ preci - __currency____totalPrice__",
    "orderPricingPromotionError": "Lūdzu, pārskatiet savu pasūtījumu. Preces vai lietotās atlaides ir mainījušās, kopš tās tika pievienotas jūsu pasūtījumam.",
    "configurableProductOutOfStockMsg": "Nav krājumā. Varat vai nu pārkonfigurēt, vai noņemt šo preci.",
    "invalidShopperInputError": "Šī(s) prece(s) ir jāizņem no jūsu groza, jo jūsu atlase vairs netiek lietota: __productName__.",
    "priceOrderBlockedText": "Pasūtījuma cenas aprēķina izsaukums bloķēts, jo notiek pasūtījuma veikšana.",
    "completeOrderDetailTextInMixCurrency": "Skatīt __count__. groza preci - __primaryCurrencySymbol____totalPrimaryPrice__ + __secondaryCurrencySymbol____totalSecondaryPrice__",
    "insufficientStockMsg": "Šim produktam varat pasūtīt ne vairāk kā __stockLimit__.",
    "quantityNumericMsg": "Nederīgs ieraksts. Lūdzu, ievadiet tikai ciparus.",
    "preOrderText": "Iekļauts iepriekšējā pasūtījumā - ",
    "AgentBackOrderedText": "__stockLimit__ prece(es) ir iekļauta(as) neizpildītā pasūtījumā",
    "productPriceChanged": "Šīs preces cena ir mainījusies, kopš tā tika pievienota jūsu grozam. Sākotnējā cena bija: __currency____originalPrice__",
    "giftChoiceText": "Jums pienākas bezmaksas dāvana. Lūdzu, tālāk atlasiet savas opcijas.",
    "cartSessionExpired": "Jūsu sesijai ir beidzies derīgums neaktivitātes dēļ. Lūdzu, piesakieties vēlreiz",
    "quantityRequireMsg": "Daudzums ir obligāts.",
    "partialPreOrderMsg": "Mums krājumā pašlaik ir __stockLimit__ prece(s). Tomēr jūs varat tagad veikt pasūtījumu visam ievadītajam daudzumam, un atlikušās preces tiks piegādātas vēlāk kā iepriekšējs pasūtījums.",
    "hiphenText": "-",
    "removeItemMsg": "Vai noņemt vienumu no jūsu groza?",
    "asteriskSymbol": "*",
    "AgentPreOrderedText": "__stockLimit__ prece(es) ir pasūtītas iepriekš",
    "removeItemFromCart": "Lūdzu, izņemiet no groza.",
    "invalidCartItemsError": "Tālāk minētā(ās) prece(es) tiks izņemta(as) no jūsu groza, jo tās vairs netiek pārdotas: __productNames__.",
    "AgentBackorderableText": "__stockLimit__ preci(es) var iekļaut neizpildītā pasūtījumā",
    "noPrice": "Šī prece vairs nav derīga. Lūdzu, izņemiet to no groza.",
    "accountsCompleteOrderDetailText_plural": "Skatīt groza __count__ preces - __currency____totalPrice__",
    "configurableProductNoPrice": "__message__ Varat vai nu pārkonfigurēt, vai izņemt no groza.",
    "AgentPreorderableText": "__stockLimit__ preci(es) var pastūtīt iepriekš",
    "giftCardUsedText": "Izmantotā(ās) dāvanu karte(es):"
  },
  "search": {
    "searchPlaceholder": "Šeit ievadiet savas meklēšanas tekstu.",
    "searchPageLoadedText": "Ielādēta meklēšanas rezultātu lapa, parādot__results__ meklējamam terminam __searchTerm__",
    "searchDropdownClosedText": "Meklēšanas rezultātu lapa ir aizvērta.",
    "searchButtonText": "Meklēt",
    "refinementValueText": "__dataLabel__ (__dataCount__)",
    "searchFailedText": "Pašlaik nevar veikt meklēšanu.",
    "searchDropdownOpenedText": "Meklēšanas rezultātu lapa ir pieejama.",
    "productresultsText": "Rezultāti: __startIndex__ - __endIndex__ (no __totalProducts__)",
    "searchLabel": "Meklēt",
    "emptyProductresultsText": "Rezultāti: 0",
    "returnCodeLabel": "Atgriešanas kods",
    "noProductsFound": "Jūs meklējāt '__searchterm__'. Nav atrasts neviens produkts.",
    "searchText": "Rāda rezultātus par __searchTerm__",
    "noProductsFoundNoSearchTerm": "Nav atrasts neviens produkts.",
    "priceUnavailable": "Cena nav pieejama",
    "searchresultsText": "Rezultāti: __startIndex__ - __endIndex__ (no __count__)",
    "noMatchesFound": "Nav atrasta neviena atbilstība",
    "showAllResultsText": "Rādīt visus rezultātus >>",
    "noSearchResultsText": "Neatradām nevienu rezultātu par __searchTerm__"
  },
  "commerceItemStates": {
    "PRE_ORDERED_CI": "Vienums ir iepriekš pasūtīts",
    "RETURN_REQUESTED_CI": "Pozīcijai ir pieprasīta atgriešana",
    "PENDING_REMOVE_CI": "Vienums gaida noņemšanas pieprasījumu",
    "OUT_OF_STOCK_CI": "Vienums nebija pieejams",
    "REMOVED_CI": "Vienums tika noņemts",
    "DISCONTINUED_CI": "Vienums tika pārtraukts",
    "FAILED_CI": "Vienums neizdevās",
    "NO_ACTION_CI": "Pozīcijai nav veikta nekāda darbība",
    "BACK_ORDERED_CI": "Vienuma pasūtījums nav izpildīts",
    "ITEM_NOT_FOUND_CI": "Vienums netika atrasts krājumu sistēmā",
    "INITIAL_CI": "Pievienots pasūtījumam",
    "SUBITEM_PENDING_DELIVERY_CI": "Vienums gaida piegādi",
    "CANCEL_REQUESTED_CI": "Pozīcijai ir pieprasīta atcelšana"
  },
  "paymentMethods": {
    "physicalGiftCard": "Dāvanu karte",
    "inStorePayment": "Maksājums veikalā",
    "onlinePaymentGroup": "Tiešsaistes maksājums",
    "default": "Noklusējuma maksājums",
    "invoiceRequest": "Rēķina maksājums",
    "tokenizedCreditCard": "Kredītkarte",
    "externalPaymentGroup": "Ārējs",
    "creditCard": "Kredītkarte",
    "giftCertificate": "Dāvanu karte",
    "cash": "Skaidras naudas maksājums",
    "storeCredit": "Veikala kredīts"
  },
  "orderStates": {
    "PENDING_REMOVE": "Tiek gaidīta noņemšana",
    "ALL": "Visi",
    "PENDING_CUSTOMER_ACTION": "Tiek gaidīta klienta darbība",
    "REJECTED_QUOTE": "Šis cenas piedāvājums ir noraidīts",
    "INCOMPLETE_CANCEL": "Pasūtījums tiek atcelts",
    "PROCESSING": "Tiek apstrādāts",
    "PENDING_MERCHANT_ACTION": "Tiek gaidīta tirgotāja darbība",
    "AGENT_REJECTED": "Atcēlis aģents",
    "FAILED_APPROVAL_TEMPLATE": "Ieplānotie pasūtījumi, ko neizdevās apstiprināt",
    "FAILED": "Neizdevās",
    "BEING_AMENDED": "Pasūtījums tiek labots",
    "TEMPLATE": "Ieplānotā pasūtījuma veidne",
    "NO_PENDING_ACTION": "Izpildīts",
    "REMOVED": "Noņemts",
    "REJECTED": "Noraidīts",
    "PENDING_PAYMENT": "Neapstiprināts maksājums",
    "QUOTED": "Šis pasūtījums ir piedāvājums",
    "PENDING_QUOTE": "Šis cenas piedāvājums tiek gaidīts",
    "PENDING_CUSTOMER_RETURN": "Tiek gaidīta atgriešana no klienta",
    "PENDING_APPROVAL_TEMPLATE": "Ieplānotie pasūtījumi, kas gaida apstiprināšanu",
    "INCOMPLETE": "Nepabeigts",
    "QUOTE_REQUEST_FAILED": "Jūsu cenas piedāvājuma pieprasījums neizdevās.",
    "PENDING_PAYMENT_TEMPLATE": "Neapstiprināta maksājuma veidne",
    "PENDING_APPROVAL": "Gaida apstiprinājumu",
    "RESERVED_INVENTORY_SG": "Krājumi ir rezervēti precei",
    "QUEUED": "Iesniegts",
    "SUSPENDED": "Aizturēts",
    "PENDING_AGENT_APPROVAL": "Tiek gaidīts aģenta apstiprinājums",
    "FAILED_APPROVAL": "Apstiprināšana neizdevās",
    "SUBMITTED": "Iesniegts izpildei",
    "APPROVED": "Apstiprināts"
  },
  "checkout": {
    "orderTotalText": "Pasūtījuma kopsumma:",
    "giftCardPinText": "Dāvanu kartes PIN kods",
    "dynamicPropertyRequired": "__fieldName__ ir obligāts",
    "cityStatePostalCode": "__city__, __state__. __postalCode__",
    "paymentErrorMsg": "Apstrādājot maksājumu, radās kļūda. Lūdzu, mēģiniet vēlreiz.",
    "orderSubmissionFailed": "Pasūtījuma iesniegšana neizdevās",
    "selectShippingOptionsText": "Atlasiet sūtīšanas veidu",
    "voidPaymentConfirmationPopUpText": "Jūs gatavojaties anulēt autorizētu maksājumu; var būt nepieciešami papildu maksājumi. Vai vēlaties turpināt?",
    "processCompletionFailed": "Jūsu pasūtījums šobrīd nav veikts. Lūdzu, mēģiniet vēlreiz.",
    "voidPaymentText": "Anulēt maksājumu",
    "invalidProfileForCheckout": "Lai varētu norēķināties, jums vispirms ir jāpiesakās.",
    "orderCouponDisplayText": "* __description__ - __code__",
    "giftCardPinRequired": "Dāvanu kartes PIN kods ir obligāts.",
    "shippingAddressRequired": "Lūdzu, ievadiet nosūtīšanas adresi",
    "invalidShippingMethod": "Norādīts nederīgs sūtīšanas veids.",
    "invalidOrderDetails": "Radās kļūda. Lūdzu, pārbaudiet nosūtīšanas adresi.",
    "itemNameText": "Nosaukums",
    "removeItemText": "Noņemt",
    "fetchingShippingMethodsText": "Notiek adresei paredzēto sūtīšanas veidu ienešana",
    "noShippingMethodsText": "Jūsu galamērķa adresei nav pieejams neviens sūtīšanas veids.",
    "salesTaxText": "Tirdzniecības nodoklis:",
    "shippingMethodValueText": "__shippingMethod__:",
    "shippingDiscountText": "Piegādes atlaide(s):",
    "toBeChargedPaymentText": " jāiekasē no: __type__ __number__",
    "OrderDiscountDesc": "* __discountDesc__",
    "paymentExpiredMsg": "Maksājumam ir beidzies derīgums. Lūdzu, mēģiniet vēlreiz.",
    "paymentRemovedText": "Jūsu maksājums tika noņemts.",
    "quantityText": "Daudzums",
    "noShippingSelectedText": "Nav atlasīts sūtīšanas veids.",
    "skuUnavailableText": "SKU nav pieejams",
    "placeOrderRegisterWarnMsg": "Nevar veikt pasūtījumu pirms lietotāja reģistrēšanas",
    "removeCouponLinkReadText": "Noņemt kuponu",
    "shippingOptionsText": "Nosūtīšanas opcijas",
    "shippingMethodText": "Sūtīšanas veids:",
    "discountText": "Atlaide(s)*:",
    "itemText": "Prece",
    "reapplyGIftCards": "Jūsu ievadītā(ās) dāvanu karte(es) nav izmantotas jūsu pasūtījumam. Lūdzu, ievadiet dāvanu karti(es) vēlreiz.",
    "chargedPaymentText": " Iekasēts no: __type__ __number__",
    "orderCannotBeUpdatePendingPaymentText": "Šis pasūtījums ir bloķēts. Visi tā atjauninājumi, izņemot maksājuma informāciju, tiks atmesti.",
    "selectShippingMethodText": "Atlasīt sūtīšanas veidu",
    "subtotalText": "Starpsumma:",
    "pricingError": "Nevar aprēķināt sūtīšanas un nodokļu izmaksas. Lūdzu, pārbaudiet nosūtīšanas adresi.",
    "invalidSKUError": "SKU nepastāv. Ievadiet derīgu SKU.",
    "shipToText": "Sūtīt uz:",
    "paymentDeclinedMsg": "Maksājums ir noraidīts. Lūdzu, mēģiniet vēlreiz.",
    "cityPostalCode": "__city__. __postalCode__",
    "fullName": "__firstName__ __lastName__",
    "giftCardNumberText": "Dāvanu kartes numurs",
    "itemDetailsText": "Preces dati",
    "paymentReversalFailed": "Jūsu pasūtījumu nevar apstrādāt tehniskas problēmas dēļ.",
    "invalidShippingAddress": "Norādīta nederīga nosūtīšanas adrese.",
    "placeHolderItemsErrorMsg": "Jūs neesat atlasījis savu bezmaksas dāvanu. Varat atgriezties pie sava groza un atlasīt bezmaksas dāvanu vai arī turpināt un pāriet uz norēķināšanos. Piezīme. Pārejot uz norēķināšanos, visas neatlasītās bezmaksas dāvanas tiks izņemtas no jūsu groza un jūs vairs nevarēsit tām piekļūt.",
    "couponDisplayText": "__description__ - __code__",
    "itemTotalText": "Preces kopā",
    "giftCardNumberRequired": "Dāvanu kartes numurs ir obligāts.",
    "shippingMethodsErrorMsg": "Lūdzu, pārliecinieties, vai esat aizpildījis visus sūtīšanas laukus un izlabojis visus nederīgos ierakstus.",
    "deductedPaymentText": " Atņemti no __type__ bilances"
  },
  "userSsoLogin": {
    "ssoLoginLinkText": "Pierakstīšanās, izmantojot vienoto pierarakstīšanos"
  },
  "product": {
    "optionRequiredMsg": "__optionName__ obligāts",
    "volumePriceTableSummaryText": "Apjoma cenas",
    "notifyDialogTitle": "Paziņot man",
    "notifyInstructions": "Tālāk ievadiet savu e-pasta adresi, un mēs jūs informēsim, ja šī prece atgriezīsies krājumā.",
    "configurableProductError": "Norādītās preces no pasūtījuma nevar pievienot grozam, jo jums ir jāizvēlas konfigurācijas opcijas: __displayName__ ",
    "optionHasNext": "$t(ns.common:resources.option),",
    "notifySuccess": "Paldies par pieprasījumu. Mēs jums nosūtīsiem e-pastu, kad tā atgriezīsies krājumā.",
    "optionCaption": "Atlasīt __optionName__...",
    "optionLast": "$t(ns.common:resources.option)",
    "skuOutOfStockError": "__sku__ nav krājumā.",
    "outOfStockError": "Norādītā(s) prece(s) netika pievienotas jūsu grozam, jo to nav krājumā: __displayName__ ",
    "notifyMeText": "Nosūtīt man e-pastu, kad ir atpakaļ krājumā",
    "notifyOutOfStock": "Šīs preces pašlaik nav krājumā.",
    "volumePriceQuantitySeparator": "__min__ - __max__",
    "volumePriceQuantityGreater": "__min__+",
    "productNotFoundError": "Norādītā(s) prece(s) netika pievienotas jūsu grozam, jo tās vairs netiek pārdotas: __displayName__ ",
    "noneOfTheItemsCanBeAdded": "Nevienu no precēm šajā pasūtījumā nevar pievienot grozam.",
    "skuNotFoundError": "__sku__ nav atrasts",
    "configurationDetails": "Detalizēta informācija",
    "notifyFailed": "Diemžēl mēs pašlaik nevaram apstrādāt jūsu pieprasījumu.",
    "priceText": "Cena",
    "option": "__optionName__: __optionValue__",
    "shippingSurchargeText": "Piemaksa par sūtīšanu:"
  },
  "selfRegistrationRequest": {
    "requesterOrgText": "Saistīts esošais konts",
    "registerText": "Reģistrēties",
    "phoneNumberMandatoryText": "Tālruņa numurs ir obligāts.",
    "requesterCommentMaxLengthText": "Pieprasītāja komentārs nevar būt garāks par 1000 rakstzīmēm.",
    "phoneNumberText": "Tālruņa numurs",
    "zipCodeText": "Pasta indekss",
    "companyNameText": "Uzņēmuma nosaukums",
    "submitText": "Iesniegt",
    "addressOneText": "Adreses 1. rindiņa",
    "receiveEmailText": "Saņemt e-pastu",
    "requesterCommentText": "Pieprasītāja komentārs",
    "stateMandatoryText": "Reģions ir obligāts.",
    "newBusinessAccountText": "Izveidot jaunu biznesa kontu",
    "zipCodeInvalid": "Nederīgs ieraksts. Lūdzu, ievadiet derīgu pasta indeksu.",
    "countryText": "Valsts",
    "postalMandatoryText": "Pasta indekss ir obligāts.",
    "countryMandatoryText": "Valsts ir obligāta.",
    "phoneNumberInvalid": "Tālruņa numurs nav derīgs.",
    "accountNameText": "Konta nosaukums",
    "approverCommentMaxLengthText": "Apstiprinātāja komentārs nevar būt garāks par 1000 rakstzīmēm.",
    "invalidInput": "Nederīga ievade",
    "thankYouMessage": "Paldies, ka iesniedzāt reģistrācijas pieprasījumu, Mēs pārskatīsim jūsu pieprasījumu un pa e-pastu informēsim jūs par rezultātiem. Ja būs nepieciešama papildu informācija, mēs ar jums sazināsimies.",
    "cityMandatoryText": "Pilsēta ir obligāta.",
    "registerNewAccountLinkText": "Reģistrēties kontam",
    "thankYouText": "Paldies",
    "addressOneMandatoryText": "1. adreses rindiņa ir obligāta.",
    "existingBusinessAccountText": "Pievienot esošu biznesa kontu",
    "stateText": "Novads/pagasts",
    "addressTwoText": "Adreses 2. rindiņa",
    "cityText": "Pilsēta"
  },
  "social": {
    "socialFacebookShareProductDescriptionText": "Iegādāties __productName__ [jūsu veikala nosaukums]",
    "socialFacebookShareWishlistDescriptionText": "Pārbaudiet, ko __wishListOwnerFirstname__ __wishListOwnerLastname__ vēlas iegādāties (vai ir iegādājies kā dāvanu). Atrodiet jaunus produktus un daudz ko citu.",
    "socialFacebookShareWishlistTitleText": "Skatīt __wishListOwnerFirstname__ vēlmju saraksts __wishlistName__",
    "socialFacebookInviteMessageText": "Pievienojieties __ownername__ vēlmju sarakstam. Kā dalībnieks varat dalīties ar idejām, pievienot produktus un komentārus, kā arī darīt daudz ko citu."
  },
  "userForgottenPassword": {
    "forgotPwdPart2": "Jums tā jāatjaunina nākamajā pieteikšanās reizē.",
    "forgotPwdPart1": "Ievadiet savu e-pasta adresi, lai saņemtu jauno pagaidu paroli.",
    "emailCancelText": "Atcelt",
    "accountIdText": "Konta ID",
    "resendRequestText": "Nosūtīt pieprasījumu atkārtoti",
    "forgotPwdMessage": "Uz jūsu e-pasta adresi nosūtīta jauna pagaidu parole un norādījumi par paroles atiestatīšanu.",
    "sendRequestText": "Nosūtīt pieprasījumu",
    "updatePasswordSuccessMessage": "Parole sekmīgi atjaunināta.",
    "updatePasswordErrorMessage": "Atjauninot paroli, radās kļūda. Lūdzu, mēģiniet vēlreiz.",
    "resetPasswordMessage": "Jūsu paroles atiestatīšanas pieprasījums tika nosūtīts. Jaunās paroles saite ir nosūtīta uz jūsu e-pasta kontu, lai jūs varētu vēlreiz pierakstīties.",
    "forgotPasswordHelpText": "Ievadiet e-pasta adresi, lai saņemtu drošu saiti un atiestatītu savu paroli.",
    "resetPwdText": "Atiestatīt paroli",
    "updatePasswordText": "Atjaunināt paroli",
    "forgotPwdText": "Aizmirsta parole",
    "forgotPasswordLinkText": "Vai aizmirsta parole?",
    "emailPasswordText": "E-pasta parole",
    "ssoLoginText": "Vienotā pierakstīšanās"
  },
  "userDetails": {
    "wishlist": "Vēlmju saraksts",
    "emailAddressText": "E-pasta adrese",
    "forgottenPasswordModalClosedText": "Aizmirstas paroles lapa ir aizvērta.",
    "headercreateNewPassword": "Izveidot jaunu paroli",
    "createNewPwdMessage": "Parole sekmīgi atjaunināta.",
    "emailAddressRequired": "Ir jānorāda e-pasta adrese.",
    "createNewPasswordModalOpenedText": "Jaunas paroles izveides lapa ir atvērta.",
    "networkConnectivityError": "Dažas funkcijas nav ielādējušās interneta savienojuma problēmas dēļ. Ja šī problēma saglabājas, mēģiniet ielādēt lapu atkārtoti.",
    "checkoutCreateAccountText": "Izveidojot kontu, jūs varēsit iepirkties ātrāk, saņemt jaunāko informāciju par pasūtījuma statusu un izsekot iepriekš izveidotos pasūtījumus.",
    "createNewPasswordError": "Jūsu parolei ir beidzies derīguma termiņš. Lūdzu, atjauniniet to pirms pieteikšanās.",
    "welcome": "Esiet sveicināts, __userName__!",
    "cityRequired": "Pilsēta ir obligāta.",
    "invalidOrganization": "Atlasīta organizācija nav derīga organizācija lietotājam, kurš ir pieteicies.",
    "passwordText": "Parole",
    "noAccountText": "Vai jums nav konta?",
    "emailAddressInvalid": "Nederīgs ieraksts. Lūdzu, ievadiet derīgu e-pasta adresi, piemēram, john@smith.com.",
    "accountAlreadyExists": "Šai e-pasta adresei jau pastāv konts. Lūdzu, ievadiet citu e-pasta adresi.",
    "lastNameRequired": "Ir jānorāda uzvārds.",
    "lastNameText": "Uzvārds",
    "registrationModalClosedText": "Reģistrācijas lapa ir aizvērta.",
    "firstNameRequired": "Ir jānorāda vārds.",
    "newConfirmPasswordText": "Apstiprināt jauno paroli",
    "filterText": "Meklēt kontu",
    "confirmPasswordText": "Apstiprināt paroli",
    "marketingMailsText": "Vēlos saņemt atjauninājumus e-pastā.",
    "loginModalOpenedText": "Pieteikšanās lapa ir atvērta.",
    "addressLine1Required": "1. adreses rindiņa ir obligāta.",
    "maxlengthValidationMsg": "Nederīgs ieraksts. Lūdzu, nepārsniedziet atļauto __maxLength__ rakstzīmju maksimumu.",
    "loginLinkText": "Pieteikties",
    "pickupDetailsErrorMsg": "Informācijai par paņemšanu ir jābūt nemainīgai visām precēm, kuras vēlaties paņemt izvēlētajā veikalā.",
    "resetPasswordModalClosedText": "Paroles atiestatīšanas lapa ir aizvērta.",
    "updatePasswordModalOpenedText": "Paroles atjaunināšanas lapa ir atvērta.",
    "companyNameRequiredText": "Uzņēmuma nosaukums ir obligāts.",
    "localeRequired": "Lokalizācija ir obligāta.",
    "oldPasswordsDoNotMatch": "Nepareiza iepriekšējās paroles vērtība.",
    "buttonCreateAccount": "Izveidot kontu",
    "phoneNumberRequiredText": "Tālruņa numurs ir obligāts.",
    "buttonLogin": "Pieteikties",
    "accountError": "Radās ar jūsu kontu saistīta problēma. Lūdzu, sazinieties ar savu konta administratoru.",
    "emailInfoText": "Šādi mēs nosūtīsim jums pasūtījuma apstiprinājumu un jaunumus par nosūtīšanu.",
    "passwordUnmatched": "Ievadītās paroles nav vienādas. Lūdzu, mēģiniet vēlreiz.",
    "companyNameRequired": "Uzņēmuma nosaukums ir obligāts. ",
    "headerCreateAccount": "Izveidot kontu",
    "newPasswdText": "Jaunā parole",
    "titleError": "Kļūda",
    "updatePasswordModalClosedText": "Paroles atjaunināšanas lapa ir aizvērta.",
    "maxLengthEmailAdd": "Nederīgs ieraksts. Lūdzu, nepārsniedziet atļauto __maxLength__ rakstzīmju maksimumu",
    "titleLogin": "Pieteikties",
    "passwordRequired": "Ir jānorāda parole.",
    "firstNameText": "Vārds",
    "personalizationConsentText": "Pārlūkošanas laikā rādīt man atbilstošo vietnes saturu un reklāmas.",
    "registrationModalOpenedText": "Reģistrācijas lapa ir atvērta.",
    "nickNameRequiredText": "Segvārds ir jānorāda obligāti.",
    "currentPasswordRequired": "Ir jānorāda pašreizējā parole.",
    "createNewPasswordModalClosedText": "Jaunas paroles izveides lapa ir aizvērta.",
    "forgottenPasswordModalOpenedText": "Aizmirstas paroles lapa ir atvērta.",
    "confirmPasswordRequired": "Lūdzu, ievadiet savu paroli vēlreiz.",
    "createAccountText": "Izveidot kontu",
    "createAccountSuccess": "Jūsu konts ir izveidots. Paldies par reģistrēšanos!",
    "loginModalClosedText": "Pieteikšanās lapa ir aizvērta.",
    "updateSuccessMsg": "Atjauninājums sekmīgi saglabāts.",
    "loginRequired": "Pieteikšanās ir obligāta.",
    "logoutLinkText": "Atteikties",
    "resetPasswordModalOpenedText": "Paroles atiestatīšanas lapa ir atvērta.",
    "loginError": "Pieteikšanās ir neveiksmīga. Ievadītie dati neatbilst mūsu ierakstiem. Lūdzu, mēģiniet vēlreiz.",
    "checkoutErrorMsg": "Lūdzu, pārliecinieties, vai aizpildījāt visus obligātos laukus un izlabojāt visus nederīgos ierakstus.",
    "reloadPage": "Ielādēt atkārtoti",
    "myAccount": "Mans konts",
    "currentPasswordText": "Pašreizējā parole"
  },
  "orderDetails": {
    "organizationDisaccoiatedErrorText": "Lietotājs nav saistīts ar kontu __account__. Ar šo pasūtījumu nav atļauts veikt nekādas darbības.",
    "ordersListingErrorText": "ERROR",
    "organizationInactiveErrorText": "Konts __account__ pašlaik nav aktīvs. Ar šo pasūtījumu nav atļauts veikt nekādas darbības.",
    "userNotAssociatedToAnyAccountText": "Lietotājs nav saistīts ne ar vienu kontu. Ar šo pasūtījumu nav atļauts veikt nekādas darbības.",
    "symbolAndAmountText": "__currencySymbol____amount__",
    "mixedCurrencyAmountText": "__primaryCurrencySymbol__ __primaryCurrencyAmount__+__secondaryCurrencySymbol____secondaryCurrencyAmount__",
    "orderNotAssociatedToAnyAccountText": "Pasūtījums nav saistīts ne ar vienu kontu. Ar šo pasūtījumu nav atļauts veikt nekādas darbības."
  },
  "storeText": {
    "goToPreviousPagePaginationSymbol": "<",
    "wishlistPageLoadedText": "Vēlmju sarakstu lapa ir ielādēta.",
    "invalidOrderState": "Nederīgs pasūtījuma stāvoklis.",
    "goToLastPagePaginationSymbol": ">>",
    "priceRangeText": "Cenu diapazons",
    "goToNextPagePaginationSymbol": ">",
    "septemberText": "Septembris",
    "goToFirstPagePaginationSymbol": "<<",
    "customTextNotFound": "[Trūkst pielāgotā teksta]",
    "januaryText": "Janvāris",
    "marchText": "Marts",
    "novemberText": "Novembris",
    "pageLoadedText": "__page__ ir ielādēta.",
    "decemberText": "Decembris",
    "removeConfigurableMsg": "Mainot valūtu, visas konfigurētās preces tiks izņemtas no jūsu groza. Vai vēlaties turpināt?",
    "augustText": "Augusts",
    "loadingText": "Ielādē...",
    "productPageLoadedText": "__product__ produkta detalizētās informācijas lapa ir ielādēta.",
    "mayText": "Maijs",
    "categoryText": "Kategorija",
    "aprilText": "Aprīlis",
    "juneText": "Jūnijs",
    "octoberText": "Oktobris",
    "julyText": "Jūlijs",
    "februaryText": "Februāris",
    "categoryPageLoadedText": "__collection__ kolekcijas lapa ir ielādēta"
  },
  "miniCart": {
    "cartDropDownText_plural": "__count__ preces - __currency____totalPrice__",
    "miniCartOpenedText": "Mini iepirkumu grozs ir atvērts.",
    "freeProductText": "Bezmaksas produkts",
    "miniCartClosedText": "Mini iepirkumu grozs ir aizvērts.",
    "cartDropDownText": "__count__ prece - __currency____totalPrice__"
  },
  "userPasswordPolicies": {
    "passwordPoliciesErrorText": "Ievadītā parole neatbilst paroles politikai. Lūdzu, mēģiniet vēlreiz.",
    "embeddedAssistanceUseMixedCase": "saturētu lielo un mazo burtu rakstzīmes",
    "embeddedAssistanceNotInPreviousNPasswords": "nebūtu iepriekš lietota",
    "embeddedAssistancePreText": "Jums ir jānodrošina, lai jūsu parole:",
    "embeddedAssistanceCannotUseUsernameText": "atšķirtos no jūsu lietotājvārda",
    "embeddedAssistanceUseNumber": "iekļautu skaitli",
    "embeddedAssistanceMinPasswordLengthText": "būtu vismaz __min__ rakstzīmju garumā",
    "embeddedAssistanceUseSymbol": "ietvertu kādu no šīm simbolu rakstzīmēm: __chars__"
  },
  "return": {
    "minimumValueMsg": "Nederīgs daudzums. Lūdzu, ievadiet 1 vai vairāk.",
    "noReturnableItem": "Preces jūsu pasūtījumā nav atgriežamas",
    "invalidQuantityMsg": "Nederīgs daudzums",
    "someitemsDeleted": "Dažas preces ir izdzēstas.",
    "returnRequestFailed": "Jūsu atgriešanas pieprasījums bija nesekmīgs.",
    "returnRequestSuccess": "Atgriešanas pieprasījums '__requestId__' ir iesniegts. Uz '__emailId__' ir nosūtīts e-pasta paziņojums",
    "invalidQuantity": "Nederīgs daudzums. Nav atļauts vairāk par __stockLimit__.",
    "itemOutOfStockMessage": "Atlasītā prece nav krājumā.",
    "invalidReturnQuantity": "Šīs pozīcijas atgrieztajam daudzumam ir jābūt lielākam par nulli, un tas nevar pārsniegt sākotnējo pasūtīto daudzumu vai sākotnējo daudzumu, no kura atņemts daudzums, kas saistīts ar jebkādu iepriekšējo atgriešanas pieprasījumu.",
    "noItemSelectError": "Jums vismaz vienai precei ir jāatlasa atgriešanas iemesls un daudzums.",
    "allitemssDeleted": "Visas preces jūsu pasūtījumā ir izdzēstas."
  }
}