{
  "imports": [],
  "translations": [
    {
      "name": "ob-contact-widget [th]",
      "language": "th"
    },
    {
      "name": "ob-contact-widget [pt_BR]",
      "language": "pt_BR"
    },
    {
      "name": "ob-contact-widget [zh_CN]",
      "language": "zh_CN"
    },
    {
      "name": "ob-contact-widget [en_AU]",
      "language": "en_AU"
    },
    {
      "name": "ob-contact-widget [en_US]",
      "language": "en_US"
    },
    {
      "name": "ob-contact-widget [uk]",
      "language": "uk"
    },
    {
      "name": "ob-contact-widget [bg]",
      "language": "bg"
    },
    {
      "name": "ob-contact-widget [et]",
      "language": "et"
    },
    {
      "name": "ob-contact-widget [lv]",
      "language": "lv"
    },
    {
      "name": "ob-contact-widget [no]",
      "language": "no"
    },
    {
      "name": "ob-contact-widget [lt]",
      "language": "lt"
    },
    {
      "name": "ob-contact-widget [fr_CA]",
      "language": "fr_CA"
    },
    {
      "name": "ob-contact-widget [ro]",
      "language": "ro"
    },
    {
      "name": "ob-contact-widget [ja]",
      "language": "ja"
    },
    {
      "name": "ob-contact-widget [sl]",
      "language": "sl"
    },
    {
      "name": "ob-contact-widget [ru]",
      "language": "ru"
    },
    {
      "name": "ob-contact-widget [hr]",
      "language": "hr"
    },
    {
      "name": "ob-contact-widget [tr]",
      "language": "tr"
    },
    {
      "name": "ob-contact-widget [pl]",
      "language": "pl"
    },
    {
      "name": "ob-contact-widget [zh_TW]",
      "language": "zh_TW"
    },
    {
      "name": "ob-contact-widget [ko]",
      "language": "ko"
    },
    {
      "name": "ob-contact-widget [cs]",
      "language": "cs"
    },
    {
      "name": "ob-contact-widget [hu]",
      "language": "hu"
    },
    {
      "name": "ob-contact-widget [el]",
      "language": "el"
    },
    {
      "name": "ob-contact-widget [da]",
      "language": "da"
    },
    {
      "name": "ob-contact-widget",
      "language": "en"
    },
    {
      "name": "ob-contact-widget [sr]",
      "language": "sr"
    },
    {
      "name": "ob-contact-widget [ar]",
      "language": "ar"
    },
    {
      "name": "ob-contact-widget [de]",
      "language": "de"
    },
    {
      "name": "ob-contact-widget [sr_Latn]",
      "language": "sr_Latn"
    },
    {
      "name": "ob-contact-widget [es]",
      "language": "es"
    },
    {
      "name": "ob-contact-widget [ca]",
      "language": "ca"
    },
    {
      "name": "ob-contact-widget [fr]",
      "language": "fr"
    },
    {
      "name": "ob-contact-widget [in]",
      "language": "id"
    },
    {
      "name": "ob-contact-widget [it]",
      "language": "it"
    },
    {
      "name": "ob-contact-widget [ms]",
      "language": "ms"
    },
    {
      "name": "ob-contact-widget [en_GB]",
      "language": "en_GB"
    },
    {
      "name": "ob-contact-widget [vi]",
      "language": "vi"
    },
    {
      "name": "ob-contact-widget [nl]",
      "language": "nl"
    },
    {
      "name": "ob-contact-widget [en_CA]",
      "language": "en_CA"
    },
    {
      "name": "ob-contact-widget [sv]",
      "language": "sv"
    },
    {
      "name": "ob-contact-widget [pt]",
      "language": "pt"
    },
    {
      "name": "ob-contact-widget [fi]",
      "language": "fi"
    }
  ],
  "availableToAllPages": true,
  "jsEditable": true,
  "minWidth": 1,
  "globalEnabled": true,
  "config": {}
}