{
  "shippingItemRelationshipStates": {
    "PARTIAL_BACK_ORDERED_SG": "Наразі ми маємо таку кількість товарів на складі: __quantity__. Решта буде доставлена пізніше як невиконане замовлення.",
    "PENDING_SUBITEM_DELIVERY_SG": "Для позиції очікуються залежні підпозиції з модуля \"Запаси\"",
    "NO_ACTION_SG": "Операції з цією позицією не виконувалися",
    "ITEM_NOT_FOUND_SG": "Позицію не знайдено в інвентарній системі",
    "PARTIAL_PRE_ORDERED_SG": "Наразі ми маємо таку кількість товарів на складі: __quantity__. Решта буде доставлена пізніше як попереднє замовлення.",
    "PENDING_RETURN_SG": "Для позиції очікується запит на повернення",
    "CANCEL_REQUESTED_SG": "Позиція запитана для скасування як частина замовлення на скасування",
    "RETURNED_SG": "Позицію повернуто",
    "FAILED_SG": "Помилка обробки позиції",
    "PENDING_SHIPMENT": "Очікується поставка",
    "RETURN_REQUESTED_SG": "Позиція запитана для повернення як частина замовлення на скасування",
    "OUT_OF_STOCK_SG": "Позиція недоступна",
    "PRE_ORDERED_SG": "Наразі цього товару немає на складі. Для певної кількості товару вже оформлено попереднє замовлення.",
    "DISCONTINUED_SG": "Використання позиції припинено",
    "INITIAL_SG": "Позицію ініціалізовано в групі відвантаження",
    "PENDING_DELIVERY_SG": "Позиція готова до постачання",
    "PENDING_REMOVE_SG": "Для позиції очікується запит на видалення",
    "DELIVERED_SG": "Позицію доставлено",
    "BACK_ORDERED_SG": "Наразі цього товару немає на складі. Це замовлення позначено як невиконане.",
    "REMOVED_SG": "Позицію видалено з групи відвантаження"
  },
  "purchaselist": {
    "purchaseListModalCreateList": "Створити список",
    "CreateNewPurchaseListSuccessMsg": "Список покупок створено. Ваш продукт додано до цього списку.",
    "CreateNewPurchaseListErrorMsg": "Не вдалося створити список покупок",
    "maxAllowedListNameLength": "Назва не має перевищувати 256 символів",
    "minQuantityCheck": "Кількість має бути більше 0",
    "newPurchaseListModalTitle": "Створити список покупок",
    "productAddToPurchaseListText": "Додати до списку замовлення",
    "SuccessMsg": "__productname__ додано до __purchaselistname__",
    "myPurchaseListText": "Мої списки покупок",
    "purchaseListModalCancel": "Скасувати",
    "listNameMandatoryText": "Необхідно обов'язково вказати назву списку",
    "createNewPurchaseListText": "Створити список покупок",
    "validQuantityCheck": "Введіть припустиму кількість",
    "productAddError": "Вибрати параметри одиниць обліку запасів",
    "purchaseListNameText": "Назва списку покупок",
    "emptyCheck": "Кількість не має бути порожньою",
    "productAddedToPurchaseListText": "Додано",
    "listNameText": "Назва списку",
    "successMsgPurchaseListName": "__purchaselistname__",
    "successMsgProductName": "__productname__ додано до "
  },
  "editOrder": {
    "fetchOrderDetailsFailedMessage": "Не вдалося отримати відомості про замовлення для новоствореного замовлення.",
    "editOrderErrorHeader": "Сталася помилка завершення замовлення.",
    "copyOrderFailureMessage": "Не вдалося створити нове замовлення на основі зміненого.",
    "initiateAmendFailed": "Сталася помилка ініціювання редагування замовлення",
    "cancelOrderErrorHeader": " Помилка скасування замовлення"
  },
  "buttonLabels": {
    "continueText": "Продовжити",
    "buttonSave": "Зберегти",
    "escapeKeyText": "Esc",
    "buttonCancel": "Скасувати",
    "yesText": "Так",
    "cancelText": "Скасувати",
    "noText": "Ні",
    "backLink": "Повернутися",
    "closeText": "Закрити",
    "confirmText": "Підтвердити",
    "okText": "OK",
    "backLinkAltText": "Повернутися на попередню сторінку"
  },
  "cancelOrder": {
    "cancelOrderSuccess": "Ваше замовлення скасовано.",
    "cancelOrderFail": "Не вдалося скасувати ваше замовлення.",
    "enterCancelReason": "Потрібно обов'язково вказати причину скасування."
  },
  "paymentGroupStates": {
    "AUTHORIZE_FAILED_PG": "Сталася помилка авторизації",
    "PAYMENT_REQUEST_ACCEPTED_PG": "Запит на платіж прийнято",
    "SETTLED_PG": "Розрахунки вже виконано",
    "AUTHORIZED_PG": "Авторизацію успішно виконано",
    "INITIAL_PG": "Групу платежів ініціалізовано",
    "CREDIT_FAILED_PG": "Сталася помилка кредиту",
    "REMOVED_PG": "Групу платежів видалено",
    "PENDING_AUTHORIZATION_PG": "Очікування на авторизацію",
    "PAYMENT_DEFERRED_PG": "Платіж відстрочено",
    "SETTLE_FAILED_PG": "Сталася помилка надходження коштів",
    "PAYMENT_REQUEST_FAILED_PG": "Помилка запиту на платіж"
  },
  "dynamicProperties": {
    "additionalInfoText": "Додаткові відомості",
    "internalProperties": "Внутрішні властивості"
  },
  "onBehalfOf": {
    "shoppingAsText": "Придбати як",
    "brandLabel": "Commerce Cloud"
  },
  "cart": {
    "quantityNotFullyAllocated": "Не всю кількість одиниць позиції розподілено між групами поставки.",
    "anonymousAccessControlError": "Увійдіть на сайт за допомогою свого ідентифікатора користувача та пароля.",
    "outOfStockMsg": "Цього товару більше немає на складі. Видалити його з кошика?",
    "availabilityDateText": "Доступно ",
    "backOrderText": "Невиконані замовлення - ",
    "quantityAllocationExceeded": "Кількість одиниць позиції, розподілених між групами поставок, перевищує кількість одиниць позиції в кошику",
    "productNameHasNext": "__productName__, ",
    "partialBackOrderMsg": "Наразі ми маємо таку кількість товарів на складі: __stockLimit__. Проте ви можете оформити замовлення зараз для всієї кількості товару. Решта буде доставлена пізніше як невиконане замовлення.",
    "volumePricedAddonError": "Ці позиції необхідно вилучити з кошика, оскільки вони не відповідають ціновим критеріям : __productNames__.",
    "backOrderedText": "Позиції з невиконаним замовленням",
    "freeProductText": "Безкоштовний продукт",
    "createOrderSiteLink": "Створити",
    "preOrderedText": "Позиції з попереднім замовленням",
    "accountsCompleteOrderDetailText": "Переглянути позиції (__count__) у кошику -- __currency____totalPrice__",
    "orderPricingPromotionError": "Перегляньте своє замовлення. Позиції або застосовані знижки змінилися після того, як їх було додано до кошика.",
    "configurableProductOutOfStockMsg": "Немає на складі. Цю позицію можна перенастроїти або видалити.",
    "invalidShopperInputError": "Ці позиції необхідно вилучити з кошика, оскільки вони більше не актуальні: __productName__.",
    "priceOrderBlockedText": "Заблоковано виклик цін замовлення, оскільки триває оформлення замовлення.",
    "completeOrderDetailTextInMixCurrency": "Переглянути __count__ позицію в кошику -- __primaryCurrencySymbol____totalPrimaryPrice__ + __secondaryCurrencySymbol____totalSecondaryPrice__",
    "insufficientStockMsg": "Ви можете замовити таку максимальну кількість цього продукту: __stockLimit__.",
    "quantityNumericMsg": "Введено неприпустимі дані. Вводьте лише цифри.",
    "preOrderText": "Попередні замовлення - ",
    "AgentBackOrderedText": "Позиції з невиконаним замовленням: __stockLimit__",
    "productPriceChanged": "Ціна товару змінилася після того, як його було додано до кошика. Початкова ціна: __currency____originalPrice__ ",
    "giftChoiceText": "Ви отримали право на безкоштовний подарунок. Виберіть варіант нижче.",
    "cartSessionExpired": "Сеанс завершено через вашу тривалу неактивність. Увійдіть до системи ще раз.",
    "quantityRequireMsg": "Необхідно обов'язково вказати кількість. ",
    "partialPreOrderMsg": "Наразі ми маємо таку кількість товарів на складі: __stockLimit__. Проте ви можете оформити замовлення зараз для всієї кількості товару. Решта буде доставлена пізніше як попереднє замовлення.",
    "hiphenText": "-",
    "removeItemMsg": "Видалити товар із кошика?",
    "asteriskSymbol": "*",
    "AgentPreOrderedText": "Позиції з попереднім замовленням: __stockLimit__",
    "removeItemFromCart": "Вилучіть позицію з кошика.",
    "invalidCartItemsError": "Такі позиції буде видалено з кошика, оскільки їх більше немає в продажу: __productNames__.",
    "AgentBackorderableText": "Позиції, які можна оформити як невиконане замовлення: __stockLimit__",
    "noPrice": "Ця позиція стала неприпустимою. Видаліть її з кошика.",
    "accountsCompleteOrderDetailText_plural": "Переглянути позиції (__count__) у кошику -- __currency____totalPrice__",
    "configurableProductNoPrice": "__message__ Можна перенастроїти або видалити з кошика.",
    "AgentPreorderableText": "Позиції, які можна оформити як попереднє замовлення: __stockLimit__",
    "giftCardUsedText": "Використані подарункові картки:"
  },
  "search": {
    "searchPlaceholder": "Введіть тут текст для пошуку.",
    "searchPageLoadedText": "Завантажено сторінку з результатами пошуку, на якій відображено __results__ за запитом \"__searchTerm__\"",
    "searchDropdownClosedText": "Сторінку результатів пошуку закрито.",
    "searchButtonText": "Пошук",
    "refinementValueText": "__dataLabel__ (__dataCount__)",
    "searchFailedText": "Зараз не вдалося виконати пошук",
    "searchDropdownOpenedText": "Доступна сторінка результатів пошуку.",
    "productresultsText": "Результати: __startIndex__ -- __endIndex__ (з __totalProducts__)",
    "searchLabel": "Пошук",
    "emptyProductresultsText": "Результати: 0",
    "returnCodeLabel": "Код повернення",
    "noProductsFound": "За запитом \"__searchterm__\" не знайдено жодного продукту.",
    "searchText": "Відображення результатів для запиту __searchTerm__ ",
    "noProductsFoundNoSearchTerm": "Товари не знайдено.",
    "priceUnavailable": "Ціна недоступна",
    "searchresultsText": "Результати: __startIndex__-__endIndex__ (з __count__)",
    "noMatchesFound": "Збігів не знайдено",
    "showAllResultsText": "Показати всі результати>>",
    "noSearchResultsText": "Не вдалося знайти результати для запиту __searchTerm__"
  },
  "commerceItemStates": {
    "PRE_ORDERED_CI": "Позицію включено до попереднього замовлення",
    "RETURN_REQUESTED_CI": "Повернення, запитане для позиції",
    "PENDING_REMOVE_CI": "Для позиції очікується запит на видалення",
    "OUT_OF_STOCK_CI": "Позиція недоступна",
    "REMOVED_CI": "Позицію видалено",
    "DISCONTINUED_CI": "Використання позиції припинено",
    "FAILED_CI": "Помилка обробки позиції",
    "NO_ACTION_CI": "Операції з позицією не виконувалися",
    "BACK_ORDERED_CI": "Замовлення товару недовиконано",
    "ITEM_NOT_FOUND_CI": "Позицію не знайдено в інвентарній системі",
    "INITIAL_CI": "Додано до замовлення",
    "SUBITEM_PENDING_DELIVERY_CI": "Для позиції очікується доставка",
    "CANCEL_REQUESTED_CI": "Скасування, запитане для позиції"
  },
  "paymentMethods": {
    "physicalGiftCard": "Подарункова картка",
    "inStorePayment": "Платіж у магазині",
    "onlinePaymentGroup": "Платіж через Інтернет",
    "default": "Стандартний платіж",
    "invoiceRequest": "Платіж за рахунком-фактурою",
    "tokenizedCreditCard": "Кредитна картка",
    "externalPaymentGroup": "Зовнішній",
    "creditCard": "Кредитна картка",
    "giftCertificate": "Подарунковий сертифікат",
    "cash": "Готівковий платіж",
    "storeCredit": "Магазинний кредит"
  },
  "orderStates": {
    "PENDING_REMOVE": "В очікуванні видалення",
    "ALL": "Усі",
    "PENDING_CUSTOMER_ACTION": "Очікування дії замовника",
    "REJECTED_QUOTE": "Цінову пропозицію відхилено",
    "INCOMPLETE_CANCEL": "Замовлення скасовано",
    "PROCESSING": "Обробляється",
    "PENDING_MERCHANT_ACTION": "Очікування дії отримувача платежу",
    "AGENT_REJECTED": "Скасовано агентом",
    "FAILED_APPROVAL_TEMPLATE": "Не вдалося затвердити планове замовлення",
    "FAILED": "Помилка",
    "BEING_AMENDED": "Замовлення, що виправляється",
    "TEMPLATE": "Шаблон планового замовлення",
    "NO_PENDING_ACTION": "Виконано",
    "REMOVED": "Видалено",
    "REJECTED": "Відхилено",
    "PENDING_PAYMENT": "Платіж у стані очікування",
    "QUOTED": "Це замовлення є котируванням",
    "PENDING_QUOTE": "Цінова пропозиція очікує на обробку",
    "PENDING_CUSTOMER_RETURN": "Очікування повернення від замовника",
    "PENDING_APPROVAL_TEMPLATE": "Очікується затвердження планового замовлення",
    "INCOMPLETE": "Не виконано",
    "QUOTE_REQUEST_FAILED": "Не вдалося надіслати запит пропонованої ціни.",
    "PENDING_PAYMENT_TEMPLATE": "Шаблон платежу в стані очікування",
    "PENDING_APPROVAL": "Очікування затвердження",
    "RESERVED_INVENTORY_SG": "Запас товару зарезервовано",
    "QUEUED": "Надіслано",
    "SUSPENDED": "Призупинено",
    "PENDING_AGENT_APPROVAL": "Очікування затвердження агента",
    "FAILED_APPROVAL": "Помилка затвердження",
    "SUBMITTED": "Надіслано для виконання",
    "APPROVED": "Затверджено"
  },
  "checkout": {
    "orderTotalText": "Загальна сума замовлення:",
    "giftCardPinText": "PIN-код подарункової картки",
    "dynamicPropertyRequired": "Значення __fieldName__ обов'язкове",
    "cityStatePostalCode": "__city__, __state__. __postalCode__",
    "paymentErrorMsg": "Помилка обробки платежу. Повторіть спробу.",
    "orderSubmissionFailed": "Не вдалося надіслати замовлення.",
    "selectShippingOptionsText": "Виберіть спосіб доставки",
    "voidPaymentConfirmationPopUpText": "Ви збираєтеся анулювати авторизований платіж. Можливо, для цього знадобиться сплатити додаткові суми. Продовжити?",
    "processCompletionFailed": "Цього разу замовлення не було розміщено. Повторіть спробу.",
    "voidPaymentText": "Анулювати платіж",
    "invalidProfileForCheckout": "Щоб оформити замовлення, потрібно ввійти.",
    "orderCouponDisplayText": "* __description__ - __code__",
    "giftCardPinRequired": "Необхідно обов'язково вказати PIN-код подарункової картки.",
    "shippingAddressRequired": "Введіть адресу поставки",
    "invalidShippingMethod": "Указано неприпустимий спосіб поставки.",
    "invalidOrderDetails": "Сталася помилка. Перевірте адресу поставки",
    "itemNameText": "Назва",
    "removeItemText": "Видалити",
    "fetchingShippingMethodsText": "Отримання способів поставки для адреси",
    "noShippingMethodsText": "Для цієї адреси призначення немає доступних способів поставки.",
    "salesTaxText": "Податок із продажів:",
    "shippingMethodValueText": "__shippingMethod__:",
    "shippingDiscountText": "Знижка (знижки) на доставку",
    "toBeChargedPaymentText": " потрібно змінити на __type__ __number__",
    "OrderDiscountDesc": "* __discountDesc__",
    "paymentExpiredMsg": "Термін дії платежу закінчився. Повторіть спробу.",
    "paymentRemovedText": "Платіж вилучено.",
    "quantityText": "Кількість",
    "noShippingSelectedText": "Не вибрано спосіб поставки.",
    "skuUnavailableText": "Одиниця обліку запасів недоступна",
    "placeOrderRegisterWarnMsg": "Неможливо розмістити замовлення перед реєстрацією користувача",
    "removeCouponLinkReadText": "Видалити купон",
    "shippingOptionsText": "Параметри поставки",
    "shippingMethodText": "Спосіб поставки:",
    "discountText": "Знижки*:",
    "itemText": "Позиція",
    "reapplyGIftCards": "Подарункові картки, дані яких було введено, не застосовані до замовлення. Повторіть спробу, скориставшись іншою подарунковою карткою.",
    "chargedPaymentText": " Змінено на __type__ __number__",
    "orderCannotBeUpdatePendingPaymentText": "Це замовлення заблоковано. Будь-які його оновлення, крім тих, що стосуються відомостей про платежі, буде відхилено.",
    "selectShippingMethodText": "Вибрати спосіб доставки",
    "subtotalText": "Проміжний підсумок:",
    "pricingError": "Не вдалося обчислити податкові витрати та витрати на поставку. Перевірте адресу поставки.",
    "invalidSKUError": "Одиниця обліку запасів не існує. Введіть припустиму одиницю обліку запасів.",
    "shipToText": "Отримувач поставки:",
    "paymentDeclinedMsg": "Платіж відхилено. Повторіть спробу.",
    "cityPostalCode": "__city__. __postalCode__",
    "fullName": "__firstName__ __lastName__",
    "giftCardNumberText": "Номер подарункової картки",
    "itemDetailsText": "Докладні відомості про позицію",
    "paymentReversalFailed": "Не вдається обробити замовлення через технічну проблему.",
    "invalidShippingAddress": "Указано неприпустиму адресу поставки.",
    "placeHolderItemsErrorMsg": "Ви не вибрали свій безкоштовний подарунок. Можете повернутися до кошика й вибрати його або перейти до оформлення покупки. Примітка. Якщо перейти до оформлення покупки, усі невибрані подарунки буде видалено з кошика, після чого вони стануть недоступними.",
    "couponDisplayText": "__description__ - __code__",
    "itemTotalText": "Загальна сума товару",
    "giftCardNumberRequired": "Необхідно обов'язково вказати номер подарункової картки.",
    "shippingMethodsErrorMsg": "Переконайтеся, що заповнено всі поля поставки та виправлено всі неприпустимі записи.",
    "deductedPaymentText": " Вирахувано із залишку __type__"
  },
  "userSsoLogin": {
    "ssoLoginLinkText": "Вхід через SSO"
  },
  "product": {
    "optionRequiredMsg": "Необхідно вказати __optionName__",
    "volumePriceTableSummaryText": "Оптові ціни",
    "notifyDialogTitle": "Повідомляти мене",
    "notifyInstructions": "Введіть адресу електронної пошти нижче, і ви отримаєте сповіщення, коли цей товар з'явиться на складі.",
    "configurableProductError": "Ви не можете додати ці товари із замовлення до кошика, оскільки ви маєте вибрати параметри конфігурації: __displayName__ ",
    "optionHasNext": "$t(ns.common:resources.option),",
    "notifySuccess": "Дякуємо за ваш запит! Ви отримаєте сповіщення електронною поштою, коли товар з'явиться на складі.",
    "optionCaption": "Виберіть __optionName__...",
    "optionLast": "$t(ns.common:resources.option)",
    "skuOutOfStockError": "__sku__ немає на складі.",
    "outOfStockError": "Ці товари не додано до кошика через їхню відсутність на складі: __displayName__ ",
    "notifyMeText": "Надіслати повідомлення електронної пошти, коли товар з'явиться на складі",
    "notifyOutOfStock": "Цього товару зараз немає на складі.",
    "volumePriceQuantitySeparator": "__min__ - __max__",
    "volumePriceQuantityGreater": "__min__+",
    "productNotFoundError": "Ці товари не додано до кошика, оскільки вони більше не продаються: __displayName__ ",
    "noneOfTheItemsCanBeAdded": "До кошика не можна додати жоден з елементів у цьому замовленні.",
    "skuNotFoundError": "__sku__ не знайдено",
    "configurationDetails": "Докладні відомості",
    "notifyFailed": "На жаль, зараз неможливо обробити ваш запит.",
    "priceText": "Ціна",
    "option": "__optionName__: __optionValue__",
    "shippingSurchargeText": "Доплата за доставку"
  },
  "selfRegistrationRequest": {
    "requesterOrgText": "Пов'язаний наявний обліковий запис",
    "registerText": "Зареєструвати",
    "phoneNumberMandatoryText": "Необхідно обов'язково вказати номер телефону.",
    "requesterCommentMaxLengthText": "Коментар заявника не може перевищувати 1000 знаків.",
    "phoneNumberText": "Номер телефону",
    "zipCodeText": "Поштовий індекс",
    "companyNameText": "Назва компанії",
    "submitText": "Надіслати",
    "addressOneText": "Адреса 1",
    "receiveEmailText": "Отримувати сповіщення електронною поштою",
    "requesterCommentText": "Коментар запитувача",
    "stateMandatoryText": "Необхідно обов'язково вказати область.",
    "newBusinessAccountText": "Створити корпоративний обліковий запис",
    "zipCodeInvalid": "Введено неприпустимі дані. Введіть припустимий поштовий індекс.",
    "countryText": "Країна",
    "postalMandatoryText": "Необхідно обов'язково вказати поштовий індекс.",
    "countryMandatoryText": "Необхідно обов'язково вказати країну.",
    "phoneNumberInvalid": "Неприпустимий номер телефону.",
    "accountNameText": "Ім'я облікового запису",
    "approverCommentMaxLengthText": "Коментар затверджувача не може перевищувати 1000 знаків.",
    "invalidInput": "Введено хибне значення",
    "thankYouMessage": "Дякуємо, що надіслали запит на реєстрацію. Ми розглянемо його й сповістимо вас щодо результатів електронною поштою. Якщо нам знадобляться додаткові дані, ми зв'яжемося з вами.",
    "cityMandatoryText": "Необхідно обов'язково вказати місто.",
    "registerNewAccountLinkText": "Зареєструвати обліковий запис",
    "thankYouText": "Дякуємо!",
    "addressOneMandatoryText": "Необхідно обов'язково вказати адресу 1.",
    "existingBusinessAccountText": "Приєднати наявний корпоративний обліковий запис",
    "stateText": "Область, республіка",
    "addressTwoText": "Адреса 2",
    "cityText": "Місто"
  },
  "social": {
    "socialFacebookShareProductDescriptionText": "Придбати __productName__ [назва вашого магазину]",
    "socialFacebookShareWishlistDescriptionText": "Дізнайтеся, що хотів би придбати користувач на ім'я __wishListOwnerFirstname__ __wishListOwnerLastname__ (або що цьому користувачу придбати в подарунок). Дізнайтеся про нові продукти та багато іншого.",
    "socialFacebookShareWishlistTitleText": "Див. список бажань \"__wishlistName__\" користувача на ім'я __wishListOwnerFirstname__",
    "socialFacebookInviteMessageText": "Приєднайтеся до списку бажань користувача на ім'я __ownername__. Тоді ви зможете ділитися з ними ідеями, додавати продукти, писати коментарі та багато іншого!"
  },
  "userForgottenPassword": {
    "forgotPwdPart2": "Дані потрібно оновити під час наступного входу.",
    "forgotPwdPart1": "Введіть адресу електронної пошти, щоб отримати новий тимчасовий пароль.",
    "emailCancelText": "Скасувати",
    "accountIdText": "Ідентифікатор облікового запису",
    "resendRequestText": "Надіслати запит",
    "forgotPwdMessage": "Новий тимчасовий пароль й інструкції щодо скидання пароля надіслано на вашу електронну пошту.",
    "sendRequestText": "Надіслати запит",
    "updatePasswordSuccessMessage": "Пароль успішно оновлено.",
    "updatePasswordErrorMessage": "Під час оновлення пароля сталася помилка. Повторіть спробу.",
    "resetPasswordMessage": "Ваш запит на скидання пароля надіслано. На обліковий запис вашої пошти надіслано посилання для створення нового пароля. Використайте його, щоб увійти знову.",
    "forgotPasswordHelpText": "Введіть адресу електронної пошти, щоб отримати безпечне посилання для скидання вашого пароля.",
    "resetPwdText": "Скинути пароль",
    "updatePasswordText": "Оновити пароль",
    "forgotPwdText": "Забули пароль",
    "forgotPasswordLinkText": "Забули пароль?",
    "emailPasswordText": "Пароль електронної пошти",
    "ssoLoginText": "Єдиний вхід"
  },
  "userDetails": {
    "wishlist": "Список бажаних товарів",
    "emailAddressText": "Електронна пошта",
    "forgottenPasswordModalClosedText": "Сторінку \"Забули пароль?\" закрито.",
    "headercreateNewPassword": "Створити новий пароль",
    "createNewPwdMessage": "Пароль успішно оновлено.",
    "emailAddressRequired": "Необхідно обов'язково вказати адресу електронної пошти. ",
    "createNewPasswordModalOpenedText": "Сторінку створення пароля відкрито.",
    "networkConnectivityError": "Не вдалося завантажити певні функції через проблеми підключення до Інтернету. Якщо ця проблема виникне знову, спробуйте перезавантажити сторінку.",
    "checkoutCreateAccountText": "Створивши обліковий запис, ви зможете прискорити придбання, стежити за станом замовлення та попередніми замовленнями.",
    "createNewPasswordError": "Термін дії пароля минув. Оновіть пароль, перш ніж входити до системи.",
    "welcome": "Вітаємо, __userName__",
    "cityRequired": "Необхідно обов'язково вказати місто.",
    "invalidOrganization": "Вибрана організація неприпустима для користувача, що ввійшов у систему.",
    "passwordText": "Пароль",
    "noAccountText": "Немає облікового запису?",
    "emailAddressInvalid": "Введено неприпустимі дані. Введіть припустиму адресу електронної пошти, наприклад xyz@pervirka.com.",
    "accountAlreadyExists": "Обліковий запис із цією адресою електронної пошти вже існує. Введіть іншу адресу електронної пошти.",
    "lastNameRequired": "Необхідно обов'язково вказати прізвище. ",
    "lastNameText": "Прізвище",
    "registrationModalClosedText": "Сторінку реєстрації закрито.",
    "firstNameRequired": "Необхідно обов'язково вказати ім'я. ",
    "newConfirmPasswordText": "Підтвердити новий пароль",
    "filterText": "Пошук облікового запису",
    "confirmPasswordText": "Підтвердити пароль",
    "marketingMailsText": "Я бажаю отримувати відомості щодо оновлень електронною поштою.",
    "loginModalOpenedText": "Сторінку входу відкрито.",
    "addressLine1Required": "Необхідно обов'язково вказати адресу 1.",
    "maxlengthValidationMsg": "Введено неприпустимі дані. Не перевищуйте максимальну кількість символів: __maxLength__.",
    "loginLinkText": "Вхід",
    "pickupDetailsErrorMsg": "Відомості про самовивіз мають бути однаковими для кожної позиції, до якої було застосовано самовивіз у вибраному магазині.",
    "resetPasswordModalClosedText": "Сторінку скидання пароля закрито.",
    "updatePasswordModalOpenedText": "Відкрито сторінку оновлення пароля.",
    "companyNameRequiredText": "Необхідно обов'язково вказати назву компанії.",
    "localeRequired": "Необхідно обов'язково вказати регіональний стандарт. ",
    "oldPasswordsDoNotMatch": "Неправильне значення попереднього пароля.",
    "buttonCreateAccount": "Створити обліковий запис",
    "phoneNumberRequiredText": "Необхідно обов'язково вказати номер телефону.",
    "buttonLogin": "Вхід",
    "accountError": "Виникли проблеми з обліковим записом. Зверніться до адміністратора облікових записів.",
    "emailInfoText": "Це дасть нам змогу надсилати вам повідомлення з підтвердженням замовлення та новини щодо поставки.",
    "passwordUnmatched": "Введені паролі не збігаються. Повторіть спробу. ",
    "companyNameRequired": "Необхідно обов'язково вказати назву компанії. ",
    "headerCreateAccount": "Створити обліковий запис",
    "newPasswdText": "Новий пароль",
    "titleError": "Помилка",
    "updatePasswordModalClosedText": "Закрито сторінку оновлення пароля.",
    "maxLengthEmailAdd": "Введено неприпустимі дані. Не перевищуйте максимальну кількість символів: __maxLength__",
    "titleLogin": "Вхід",
    "passwordRequired": "Необхідно обов'язково вказати пароль. ",
    "firstNameText": "Ім'я",
    "personalizationConsentText": "Показувати відповідний вміст сайту та рекламні акції під час перегляду.",
    "registrationModalOpenedText": "Сторінку реєстрації відкрито.",
    "nickNameRequiredText": "Необхідно обов'язково вказати коротке ім'я.",
    "currentPasswordRequired": "Необхідно обов'язково вказати поточний пароль.",
    "createNewPasswordModalClosedText": "Сторінку створення пароля закрито.",
    "forgottenPasswordModalOpenedText": "Сторінку \"Забули пароль?\" відкрито.",
    "confirmPasswordRequired": "Введіть пароль ще раз. ",
    "createAccountText": "Створити обліковий запис",
    "createAccountSuccess": "Обліковий запис створено. Дякуємо за реєстрацію.",
    "loginModalClosedText": "Сторінку входу закрито.",
    "updateSuccessMsg": "Оновлення успішно збережено.",
    "loginRequired": "Потрібно обов'язково вказати ім'я для входу. ",
    "logoutLinkText": "Вихід",
    "resetPasswordModalOpenedText": "Сторінку скидання пароля відкрито.",
    "loginError": "Не вдалось увійти в систему. Введені дані не збігаються з нашими записами. Повторіть спробу.",
    "checkoutErrorMsg": "Переконайтеся, що заповнено всі обов'язкові поля та виправлено будь-які неправильні записи.",
    "reloadPage": "Перезавантажити",
    "myAccount": "Мій обліковий запис",
    "currentPasswordText": "Поточний пароль"
  },
  "orderDetails": {
    "organizationDisaccoiatedErrorText": "Користувач не пов'язаний з обліковим записом __account__. Операції з цим замовленням заборонені.",
    "ordersListingErrorText": "ERROR",
    "organizationInactiveErrorText": "Обліковий запис __account__ наразі неактивний. Операції з цим замовленням заборонені.",
    "userNotAssociatedToAnyAccountText": "Користувач не пов'язаний із жодним обліковим записом. Операції з цим замовленням заборонені.",
    "symbolAndAmountText": "__currencySymbol____amount__",
    "mixedCurrencyAmountText": "__primaryCurrencySymbol__ __primaryCurrencyAmount__+__secondaryCurrencySymbol____secondaryCurrencyAmount__",
    "orderNotAssociatedToAnyAccountText": "Замовлення не пов'язано з жодним обліковим записом. Операції з цим замовленням заборонені."
  },
  "storeText": {
    "goToPreviousPagePaginationSymbol": "<",
    "wishlistPageLoadedText": "Завантажено сторінку побажань.",
    "invalidOrderState": "Неприпустимий стан замовлення.",
    "goToLastPagePaginationSymbol": ">>",
    "priceRangeText": "Діапазон цін",
    "goToNextPagePaginationSymbol": ">",
    "septemberText": "Вересень",
    "goToFirstPagePaginationSymbol": "<<",
    "customTextNotFound": "[Відсутній кастомізований текст]",
    "januaryText": "Січень",
    "marchText": "Березень",
    "novemberText": "Листопад",
    "pageLoadedText": "Завантажено __page__.",
    "decemberText": "Грудень",
    "removeConfigurableMsg": "Якщо змінити валюту, усі настроєні позиції буде видалено з кошика. Продовжити?",
    "augustText": "Серпень",
    "loadingText": "Завантаження...",
    "productPageLoadedText": "Завантажено сторінку з відомостями про продукт __product__.",
    "mayText": "Травень",
    "categoryText": "Категорія",
    "aprilText": "Квітень",
    "juneText": "Червень",
    "octoberText": "Жовтень",
    "julyText": "Липень",
    "februaryText": "Лютий",
    "categoryPageLoadedText": "Завантажено сторінку колекції __collection__"
  },
  "miniCart": {
    "cartDropDownText_plural": "Ціна __count__ товарів: __currency____totalPrice__",
    "miniCartOpenedText": "Мінікошик відкрито.",
    "freeProductText": "Безкоштовний продукт",
    "miniCartClosedText": "Мінікошик закрито.",
    "cartDropDownText": "Ціна __count__ товару: __currency____totalPrice__"
  },
  "userPasswordPolicies": {
    "passwordPoliciesErrorText": "Введений пароль не відповідає політиці паролів. Повторіть спробу.",
    "embeddedAssistanceUseMixedCase": "містить символи у верхньому та нижньому регістрі;",
    "embeddedAssistanceNotInPreviousNPasswords": "ще не використовувався.",
    "embeddedAssistancePreText": "Переконайтеся, що ваш пароль:",
    "embeddedAssistanceCannotUseUsernameText": "відрізняється від вашого імені користувача;",
    "embeddedAssistanceUseNumber": "містить цифру;",
    "embeddedAssistanceMinPasswordLengthText": "містить принаймні таку кількість символів: __min__;",
    "embeddedAssistanceUseSymbol": "містить один із таких символів: __chars__"
  },
  "return": {
    "minimumValueMsg": "Неприпустима кількість. Введіть 1 або більше.",
    "noReturnableItem": "У замовленні містяться товари, які не можна повернути",
    "invalidQuantityMsg": "Неприпустима кількість",
    "someitemsDeleted": "Видалено певні позиції.",
    "returnRequestFailed": "Не вдалося надіслати запит на повернення.",
    "returnRequestSuccess": "Надіслано запит на повернення \"__requestId__\". На адресу \"__emailId__\" надіслано повідомлення.",
    "invalidQuantity": "Неприпустима кількість. Максимальне допустиме значення: __stockLimit__.",
    "itemOutOfStockMessage": "Вибраного товару немає на складі",
    "invalidReturnQuantity": "Повернута кількість цього товару має бути більшою за нуль і не може перевищувати початкову замовлену кількість, або має дорівнювати різниці між початковою замовленою кількість та кількістю, пов'язаною з усіма попередніми запитами на повернення.",
    "noItemSelectError": "Необхідно вибрати причину повернення та кількість позицій принаймні для одного товару.",
    "allitemssDeleted": "Видалено всі позиції в замовленні."
  }
}