{
  "configuration": {
    "exampleOptionProperty": "option1",
    "exampleBooleanProperty": true,
    "exampleStringProperty": "Example String Property Value"
  },
  "displayName": "ob-footer-widget"
}