{
  "widgetDescriptorName": "ob-news-events-widget",
  "properties": [
    {
      "name": "contentItemId",
      "id": "contentItemId",
      "helpTextResourceId": "contentitemtext",
      "labelResourceId": "contentitemlabeltext",
      "type": "stringType"
    }
  ]
}