{
  "imports": [
    "product",
    "imageRootUrl",
    "loaded",
    "productVariantOptions",
    "productTypes"
  ],
  "translations": [
    {
      "name": "ob-skulisting-widget",
      "language": "en"
    },
    {
      "name": "ob-skulisting-widget [de]",
      "language": "de"
    },
    {
      "name": "ob-skulisting-widget [es]",
      "language": "es"
    },
    {
      "name": "ob-skulisting-widget [en_US]",
      "language": "en_US"
    },
    {
      "name": "ob-skulisting-widget [fr]",
      "language": "fr"
    },
    {
      "name": "ob-skulisting-widget [sv]",
      "language": "sv"
    }
  ],
  "jsEditable": true,
  "minWidth": 1,
  "globalEnabled": true,
  "pageTypes": [
    "product"
  ],
  "config": {}
}