{
  "shippingItemRelationshipStates": {
    "PARTIAL_BACK_ORDERED_SG": "No momento, há __quantity__ item(ns) em estoque. O estoque restante será preenchido posteriormente como um pedido pendente.",
    "PENDING_SUBITEM_DELIVERY_SG": "O item está aguardando subitens dependentes do estoque",
    "NO_ACTION_SG": "Nenhuma ação tomada em relação a este item",
    "ITEM_NOT_FOUND_SG": "O item não foi localizado no sistema de estoque",
    "PARTIAL_PRE_ORDERED_SG": "No momento, há __quantity__ item(ns) em estoque. O estoque restante será preenchido posteriormente como um pedido antecipado.",
    "PENDING_RETURN_SG": "O item está com uma solicitação de devolução pendente",
    "CANCEL_REQUESTED_SG": "O cancelamento do item é solicitado como parte do pedido de cancelamento",
    "RETURNED_SG": "O item foi devolvido",
    "FAILED_SG": "O item falhou",
    "PENDING_SHIPMENT": "Remessa Pendente",
    "RETURN_REQUESTED_SG": "A devolução do item é solicitada como parte do pedido de cancelamento",
    "OUT_OF_STOCK_SG": "O item não estava disponível",
    "PRE_ORDERED_SG": "No momento, o item não está disponível em estoque e tem um pedido antecipado",
    "DISCONTINUED_SG": "O item foi descontinuado",
    "INITIAL_SG": "O item foi inicializado dentro do grupo de entrega",
    "PENDING_DELIVERY_SG": "O item está pronto para entrega",
    "PENDING_REMOVE_SG": "O item está com uma solicitação de remoção pendente",
    "DELIVERED_SG": "O item foi entregue",
    "BACK_ORDERED_SG": "No momento, o item não está disponível em estoque e tem um pedido pendente",
    "REMOVED_SG": "O item foi removido do grupo de entrega"
  },
  "purchaselist": {
    "purchaseListModalCreateList": "Criar Lista",
    "CreateNewPurchaseListSuccessMsg": "A Lista de Compras foi criada e seu Produto foi adicionado",
    "CreateNewPurchaseListErrorMsg": "Falha ao criar a Lista de Compras",
    "maxAllowedListNameLength": "O nome deve ter menos de 256 caracteres",
    "minQuantityCheck": "A quantidade deve ser maior do que 0",
    "newPurchaseListModalTitle": "Criar uma Lista de Compras",
    "productAddToPurchaseListText": "Adicionar à Lista de Compras",
    "SuccessMsg": "__productname__ foi adicionado à sua lista __purchaselistname__",
    "myPurchaseListText": "Minhas listas de compras",
    "purchaseListModalCancel": "Cancelar",
    "listNameMandatoryText": "O Nome da Lista é obrigatório",
    "createNewPurchaseListText": "Criar Lista de Compras",
    "validQuantityCheck": "Informe uma quantidade válida",
    "productAddError": "Selecionar opções de SKU",
    "purchaseListNameText": "Nome da Lista de Compras",
    "emptyCheck": "A quantidade não pode estar vazia",
    "productAddedToPurchaseListText": "Adicionado",
    "listNameText": "Nome da Lista",
    "successMsgPurchaseListName": "__purchaselistname__",
    "successMsgProductName": "__productname__ foi adicionado ao seu"
  },
  "editOrder": {
    "fetchOrderDetailsFailedMessage": "Falha ao recuperar os detalhes do pedido para o novo pedido criado.",
    "editOrderErrorHeader": "Falha na conclusão do pedido",
    "copyOrderFailureMessage": "Falha ao criar o novo pedido a partir do pedido editado.",
    "initiateAmendFailed": "Falha ao Iniciar Edição de Pedido",
    "cancelOrderErrorHeader": " Erro no Cancelamento do Pedido"
  },
  "buttonLabels": {
    "continueText": "Continuar",
    "buttonSave": "Salvar",
    "escapeKeyText": "esc",
    "buttonCancel": "Cancelar",
    "yesText": "Sim",
    "cancelText": "Cancelar",
    "noText": "Não",
    "backLink": "Voltar",
    "closeText": "Fechar",
    "confirmText": "Confirmar",
    "okText": "OK",
    "backLinkAltText": "Voltar à Página Anterior"
  },
  "cancelOrder": {
    "cancelOrderSuccess": "Seu pedido foi cancelado.",
    "cancelOrderFail": "Não é possível cancelar. Seu pedido não foi cancelado.",
    "enterCancelReason": "O Motivo do Cancelamento é obrigatório."
  },
  "paymentGroupStates": {
    "AUTHORIZE_FAILED_PG": "Falha na autorização",
    "PAYMENT_REQUEST_ACCEPTED_PG": "Solicitação de pagamento aceita",
    "SETTLED_PG": "Os encargos foram liquidados",
    "AUTHORIZED_PG": "Autorização realizada com êxito",
    "INITIAL_PG": "O grupo de pagamento foi inicializado",
    "CREDIT_FAILED_PG": "Falha no crédito",
    "REMOVED_PG": "O grupo de pagamento foi removido",
    "PENDING_AUTHORIZATION_PG": "Autorização pendente",
    "PAYMENT_DEFERRED_PG": "Pagamento diferido",
    "SETTLE_FAILED_PG": "Falha na liquidação de fundos",
    "PAYMENT_REQUEST_FAILED_PG": "Solicitação de pagamento falhou"
  },
  "dynamicProperties": {
    "additionalInfoText": "Informações Adicionais",
    "internalProperties": "Propriedades Internas"
  },
  "onBehalfOf": {
    "shoppingAsText": "Comprando como",
    "brandLabel": "Commerce Cloud"
  },
  "cart": {
    "quantityNotFullyAllocated": "A quantidade de itens no carrinho não foi totalmente alocada para grupos de entrega.",
    "anonymousAccessControlError": "Faça login no site com seu id de usuário e senha.",
    "outOfStockMsg": "O item não existe no estoque. Removê-lo do carrinho?",
    "availabilityDateText": "Disponível ",
    "backOrderText": "Pedido Pendente -",
    "quantityAllocationExceeded": "A quantidade de itens alocada para grupos de entrega excede a quantidade de itens no carrinho.",
    "productNameHasNext": "__productName__, ",
    "partialBackOrderMsg": "No momento, há __stockLimit__ item(ns) em estoque. No entanto, agora você pode fazer um pedido contendo a quantidade inteira informada, e o estoque restante será preenchido posteriormente como um pedido pendente.",
    "volumePricedAddonError": "O(s) item(ns) a seguir devem ser removidos do seu carrinho porque não atendem aos critérios de preço: __productNames__.",
    "backOrderedText": "Itens em pedidos pendentes",
    "freeProductText": "Produto Gratuito",
    "createOrderSiteLink": "Novo",
    "preOrderedText": "Itens em pedidos antecipados",
    "accountsCompleteOrderDetailText": "Exibir Carrinho __count__ item - __currency____totalPrice__",
    "orderPricingPromotionError": "Analise seu pedido. Itens ou descontos aplicados foram alterados desde que foram adicionados ao pedido.",
    "configurableProductOutOfStockMsg": "Esgotado. Você pode reconfigurar ou remover este item.",
    "invalidShopperInputError": "O(s) item(ns) a seguir será(ão) removido(s) do seu carrinho porque sua seleção não se aplica mais: __productName__.",
    "priceOrderBlockedText": "Chamada de precificação do pedido bloqueada, pois o pedido ainda está sendo feito.",
    "completeOrderDetailTextInMixCurrency": "Exibir __count__ item do Carrinho - __primaryCurrencySymbol____totalPrimaryPrice__ + __secondaryCurrencySymbol____totalSecondaryPrice__",
    "insufficientStockMsg": "É possível fazer um pedido de no máximo __stockLimit__ deste produto.",
    "quantityNumericMsg": "Entrada inválida. Informe somente números.",
    "preOrderText": "Pedido Antecipado - ",
    "AgentBackOrderedText": "__stockLimit__ Itens em Pedidos Pendentes",
    "productPriceChanged": "O preço do item foi alterado desde que ele foi adicionado ao carrinho. O preço original era: __currency____originalPrice__ ",
    "giftChoiceText": "Você foi qualificado para um brinde. Selecione suas opções abaixo.",
    "cartSessionExpired": "A sessão expirou devido à inatividade. Faça login novamente",
    "quantityRequireMsg": "A quantidade é obrigatória. ",
    "partialPreOrderMsg": "No momento, há __stockLimit__ item(ns) em estoque. No entanto, agora você pode fazer um pedido contendo a quantidade inteira informada, e o estoque restante será preenchido posteriormente como um pedido antecipado.",
    "hiphenText": "-",
    "removeItemMsg": "Remover item do carrinho de compras?",
    "asteriskSymbol": "*",
    "AgentPreOrderedText": "__stockLimit__ Itens em Pedidos Antecipados",
    "removeItemFromCart": "Remova do carrinho.",
    "invalidCartItemsError": "O(s) item(ns) será(ão) removido(s) do seu carrinho porque não está(ão) mais disponível(eis) para venda: __productNames__.",
    "AgentBackorderableText": "__stockLimit__ Itens em reserva possível",
    "noPrice": "Este item não é mais válido. Remova-o do carrinho.",
    "accountsCompleteOrderDetailText_plural": "Exibir Carrinho __count__ items - __currency____totalPrice__",
    "configurableProductNoPrice": "__message__ Você pode reconfigurar ou remover do carrinho.",
    "AgentPreorderableText": "__stockLimit__ Itens em pedido antecipado",
    "giftCardUsedText": "Cartão(ões)-presente(s) usado(s): "
  },
  "search": {
    "searchPlaceholder": "Informe o texto de pesquisa aqui.",
    "searchPageLoadedText": "A página dos resultados da pesquisa foi carregada exibindo __results__ para o termo de pesquisa __searchTerm__",
    "searchDropdownClosedText": "Página dos resultados da pesquisa fechada.",
    "searchButtonText": "Pesquisar",
    "refinementValueText": "__dataLabel__ (__dataCount__)",
    "searchFailedText": "Não é possível executar uma pesquisa no momento.",
    "searchDropdownOpenedText": "A página dos resultados da pesquisa está disponível.",
    "productresultsText": "Resultados: __startIndex__ - __endIndex__ (de __totalProducts__)",
    "searchLabel": "Pesquisar",
    "emptyProductresultsText": "Resultados: 0",
    "returnCodeLabel": "Código de devolução",
    "noProductsFound": "Você pesquisou por '__searchterm__'. Nenhum produto foi encontrado.",
    "searchText": "Mostrar Resultados para __searchTerm__ ",
    "noProductsFoundNoSearchTerm": "Nenhum produto foi encontrado.",
    "priceUnavailable": "Preço Não Disponível",
    "searchresultsText": "Resultados: __startIndex__ - __endIndex__ (de __count__)",
    "noMatchesFound": "Nenhuma Correspondência Encontrada",
    "showAllResultsText": "Mostrar todos os resultados >>",
    "noSearchResultsText": "Não foi possível encontrar resultados para __searchTerm__"
  },
  "commerceItemStates": {
    "PRE_ORDERED_CI": "O item tem ordem antecipada",
    "RETURN_REQUESTED_CI": "Devolução solicitada para o item",
    "PENDING_REMOVE_CI": "O item está com uma solicitação de remoção pendente",
    "OUT_OF_STOCK_CI": "O item não estava disponível",
    "REMOVED_CI": "O item foi removido",
    "DISCONTINUED_CI": "O item foi descontinuado",
    "FAILED_CI": "O item falhou",
    "NO_ACTION_CI": "Nenhuma ação tomada em relação ao item",
    "BACK_ORDERED_CI": "O item tem pedidos pendentes",
    "ITEM_NOT_FOUND_CI": "O item não foi localizado no sistema de estoque",
    "INITIAL_CI": "Adicionado ao pedido",
    "SUBITEM_PENDING_DELIVERY_CI": "O item está com uma entrega pendente",
    "CANCEL_REQUESTED_CI": "Cancelamento solicitado para o item"
  },
  "paymentMethods": {
    "physicalGiftCard": "Cartão-presente",
    "inStorePayment": "Pagamento na loja",
    "onlinePaymentGroup": "Pagamento On-line",
    "default": "Pagamento Padrão",
    "invoiceRequest": "Pagamento de Fatura",
    "tokenizedCreditCard": "Cartão de crédito",
    "externalPaymentGroup": "Externo",
    "creditCard": "Cartão de crédito",
    "giftCertificate": "Vale Presente",
    "cash": "Pagamento em Dinheiro",
    "storeCredit": "Crédito da Loja"
  },
  "orderStates": {
    "PENDING_REMOVE": "Remoção pendente",
    "ALL": "Todos",
    "PENDING_CUSTOMER_ACTION": "Ação pendente do cliente",
    "REJECTED_QUOTE": "Esta cotação foi rejeitada",
    "INCOMPLETE_CANCEL": "O pedido está sendo cancelado",
    "PROCESSING": "Em processamento",
    "PENDING_MERCHANT_ACTION": "Ação pendente do comerciante",
    "AGENT_REJECTED": "Cancelado pelo agente",
    "FAILED_APPROVAL_TEMPLATE": "Pedido Programado ou com Falha na Aprovação",
    "FAILED": "Com falha",
    "BEING_AMENDED": "Pedido sendo alterado",
    "TEMPLATE": "Modelo de pedido programado",
    "NO_PENDING_ACTION": "Atendido",
    "REMOVED": "Removido",
    "REJECTED": "Rejeitado",
    "PENDING_PAYMENT": "Pagamento pendente",
    "QUOTED": "Este pedido é uma cotação",
    "PENDING_QUOTE": "Esta cotação está pendente",
    "PENDING_CUSTOMER_RETURN": "Devolução pendente do cliente",
    "PENDING_APPROVAL_TEMPLATE": "Pedido Programado ou com Aprovação Pendente",
    "INCOMPLETE": "Incompleto",
    "QUOTE_REQUEST_FAILED": "Solicitação de cotação sem êxito",
    "PENDING_PAYMENT_TEMPLATE": "Modelo de pagamento pendente",
    "PENDING_APPROVAL": "Aprovação pendente",
    "RESERVED_INVENTORY_SG": "O estoque está reservado para o item",
    "QUEUED": "Enviado",
    "SUSPENDED": "Suspenso",
    "PENDING_AGENT_APPROVAL": "Aprovação pendente do agente",
    "FAILED_APPROVAL": "Falha na aprovação",
    "SUBMITTED": "Enviado para atendimento",
    "APPROVED": "Aprovado"
  },
  "checkout": {
    "orderTotalText": "Total do Pedido:",
    "giftCardPinText": "PIN do Cartão-presente",
    "dynamicPropertyRequired": "__fieldName__ é obrigatório",
    "cityStatePostalCode": "__city__, __state__. __postalCode__",
    "paymentErrorMsg": "Erro ao processar pagamento. Tente novamente.",
    "orderSubmissionFailed": "Falha no envio do pedido.",
    "selectShippingOptionsText": "Selecione seu Método de Remessa",
    "voidPaymentConfirmationPopUpText": "Você está prestes a anular um pagamento autorizado; talvez sejam necessários pagamentos adicionais. Tem certeza de que deseja continuar?",
    "processCompletionFailed": "Seu pedido não foi finalizado desta vez. Tente novamente.",
    "voidPaymentText": "Anular Pagamento",
    "invalidProfileForCheckout": "Você deve primeiro efetuar log-in para poder fazer check-out.",
    "orderCouponDisplayText": "* __description__ - __code__",
    "giftCardPinRequired": "O Pin do cartão-presente é obrigatório.",
    "shippingAddressRequired": "Informe um endereço de entrega",
    "invalidShippingMethod": "Método de remessa inválido especificado.",
    "invalidOrderDetails": "Ocorreu um erro. Verifique o endereço de remessa",
    "itemNameText": "Nome",
    "removeItemText": "Remover",
    "fetchingShippingMethodsText": "Buscando métodos de entrega do endereço",
    "noShippingMethodsText": "Não há métodos de entrega disponíveis para o seu endereço de destino.",
    "salesTaxText": "Imposto sobre Vendas:",
    "shippingMethodValueText": "__shippingMethod__:",
    "shippingDiscountText": "Desconto(s) de Entrega:",
    "toBeChargedPaymentText": " a ser cobrado de __type__ __number__",
    "OrderDiscountDesc": "* __discountDesc__",
    "paymentExpiredMsg": "O pagamento Expirou. Tente novamente.",
    "paymentRemovedText": "O seu pagamento foi removido.",
    "quantityText": "Quantidade",
    "noShippingSelectedText": "Nenhum Método de Remessa Selecionado.",
    "skuUnavailableText": "A Sku não está disponível",
    "placeOrderRegisterWarnMsg": "Não é possível fazer o pedido antes de registrar o usuário.",
    "removeCouponLinkReadText": "Remover Cupom",
    "shippingOptionsText": "Opções de Entrega",
    "shippingMethodText": "Método de Remessa:",
    "discountText": "Desconto(s)*:",
    "itemText": "Item",
    "reapplyGIftCards": "O(s) cartão(ões)-presente informados não foram aplicados ao seu pedido. Digite seu(s) cartão(ões)-presente novamente.",
    "chargedPaymentText": " Cobrado de __type__ __number__",
    "orderCannotBeUpdatePendingPaymentText": "Esse pedido está bloqueado. Qualquer atualização nele que não seja informação sobre pagamento será descartada.",
    "selectShippingMethodText": "Selecionar método de remessa",
    "subtotalText": "Subtotal:",
    "pricingError": "Não é possível calcular os custos da entrega e dos impostos. Verifique seu endereço de entrega.",
    "invalidSKUError": "SKU não existe. Informe uma SKU válida.",
    "shipToText": "Entregar para:",
    "paymentDeclinedMsg": "O pagamento foi Recusado. Tente novamente.",
    "cityPostalCode": "__city__. __postalCode__",
    "fullName": "__firstName__ __lastName__",
    "giftCardNumberText": "Número do Cartão-presente",
    "itemDetailsText": "Detalhes do Item",
    "paymentReversalFailed": "Não foi possível processar seu pedido devido a um problema técnico.",
    "invalidShippingAddress": "Endereço de entrega inválido especificado.",
    "placeHolderItemsErrorMsg": "Você não selecionou o brinde. Retorne ao carrinho de compras para fazer a seleção do seu brinde ou prossiga com o check-out. Observação: se você prosseguir com o check-out, todos os brindes não selecionados serão removidos do carrinho de compras e você não terá mais acesso a eles.",
    "couponDisplayText": "__description__ - __code__",
    "itemTotalText": "Total do Item",
    "giftCardNumberRequired": "O número do cartão-presente é obrigatório.",
    "shippingMethodsErrorMsg": "Verifique se você preencheu todos os campos de entrega e corrigiu todas as entradas inválidas.",
    "deductedPaymentText": " Deduzido do Saldo de __type__"
  },
  "userSsoLogin": {
    "ssoLoginLinkText": "Logon por meio de SSO"
  },
  "product": {
    "optionRequiredMsg": "__optionName__ obrigatório",
    "volumePriceTableSummaryText": "Preços por Volume",
    "notifyDialogTitle": "Notificar-me",
    "notifyInstructions": "Informe seu endereço de e-mail abaixo e nós o notificaremos quando este item voltar ao estoque.",
    "configurableProductError": "Não é possível adicionar estes itens do seu pedido ao carrinho porque você precisa escolher opções de configuração: __displayName__ ",
    "optionHasNext": "$t(ns.common:resources.option),",
    "notifySuccess": "Obrigado pela solicitação. Nós enviaremos um e-mail quando o item voltar ao estoque.",
    "optionCaption": "Selecione __optionName__ ...",
    "optionLast": "$t(ns.common:resources.option)",
    "skuOutOfStockError": "__sku__ está esgotada.",
    "outOfStockError": "Os itens a seguir não foram adicionados ao seu carrinho porque não estão disponíveis em estoque: __displayName__ ",
    "notifyMeText": "Envie-me um e-mail quando voltar ao estoque",
    "notifyOutOfStock": "No momento, este item está esgotado.",
    "volumePriceQuantitySeparator": "__min__ - __max__",
    "volumePriceQuantityGreater": "__min__+",
    "productNotFoundError": "Os itens a seguir não foram adicionados ao seu carrinho porque não estão mais disponíveis para venda: __displayName__ ",
    "noneOfTheItemsCanBeAdded": "Não é possível adicionar nenhum dos itens deste pedido ao carrinho.",
    "skuNotFoundError": "__sku__ não encontrada",
    "configurationDetails": "Detalhes",
    "notifyFailed": "Não é possível processar a solicitação no momento.",
    "priceText": "Preço",
    "option": "__optionName__: __optionValue__",
    "shippingSurchargeText": "Sobretaxa de Remessa: "
  },
  "selfRegistrationRequest": {
    "requesterOrgText": "Conta Existente Relacionada",
    "registerText": "Registrar",
    "phoneNumberMandatoryText": "O número de telefone é obrigatório.",
    "requesterCommentMaxLengthText": "O comentário do solicitante não pode ter mais do que 1.000 caracteres.",
    "phoneNumberText": "Número de Telefone",
    "zipCodeText": "CEP/Código postal",
    "companyNameText": "Nome da Empresa",
    "submitText": "Enviar",
    "addressOneText": "Endereço 1",
    "receiveEmailText": "Receber E-mail",
    "requesterCommentText": "Comentário do Solicitante",
    "stateMandatoryText": "O estado é obrigatório.",
    "newBusinessAccountText": "Criar uma nova conta de negócios",
    "zipCodeInvalid": "Entrada inválida. Informe um CEP/Código postal válido.",
    "countryText": "País",
    "postalMandatoryText": "CEP/Código Postal é obrigatório.",
    "countryMandatoryText": "O país é obrigatório.",
    "phoneNumberInvalid": "O número de telefone é inválido.",
    "accountNameText": "Nome da conta",
    "approverCommentMaxLengthText": "O comentário do aprovador não pode ter mais de 1000 caracteres.",
    "invalidInput": "Entrada Inválida",
    "thankYouMessage": "Obrigado por enviar uma solicitação de registro. Nós analisaremos a sua solicitação e o notificaremos dos resultados por e-mail. Caso precisemos de informações adicionais, entraremos em contato.",
    "cityMandatoryText": "A cidade é obrigatória.",
    "registerNewAccountLinkText": "Registrar-se em uma conta",
    "thankYouText": "Obrigado",
    "addressOneMandatoryText": "O endereço1 é obrigatório.",
    "existingBusinessAccountText": "Utilizar uma conta existente",
    "stateText": "Estado/Província",
    "addressTwoText": "Endereço 2",
    "cityText": "Cidade"
  },
  "social": {
    "socialFacebookShareProductDescriptionText": "Compre __productName__ [Nome da Loja]",
    "socialFacebookShareWishlistDescriptionText": "Confira o que __wishListOwnerFirstname__ __wishListOwnerLastname__ tem interesse em comprar (ou comprou como presente!). Descubra novos produtos e muito mais.",
    "socialFacebookShareWishlistTitleText": "Consulte a lista de desejos __wishlistName__ de __wishListOwnerFirstname__",
    "socialFacebookInviteMessageText": "Junte-se à lista de desejos de __ownername__. Como membro, você pode compartilhar ideias, adicionar produtos, comentários e muito mais!"
  },
  "userForgottenPassword": {
    "forgotPwdPart2": "Será necessário atualizá-la no próximo log-on.",
    "forgotPwdPart1": "Informe seu endereço de e-mail para receber sua nova senha temporária.",
    "emailCancelText": "Cancelar",
    "accountIdText": "ID da Conta",
    "resendRequestText": "Reenviar Solicitação",
    "forgotPwdMessage": "Uma senha nova temporária foi enviada para seu endereço de e-mail, juntamente com instruções para redefinição da senha.",
    "sendRequestText": "Enviar Solicitação",
    "updatePasswordSuccessMessage": "Senha atualizada com sucesso.",
    "updatePasswordErrorMessage": "Houve um erro ao atualizar a senha. Tente novamente.",
    "resetPasswordMessage": "Sua solicitação de redefinição de senha foi enviada. O link de uma nova senha foi enviado para sua conta de e-mail para possibilitar que você faça signon de novo.",
    "forgotPasswordHelpText": "Digite seu endereço de e-mail para receber um link seguro para redefinir sua senha.",
    "resetPwdText": "Redefinir Senha",
    "updatePasswordText": "Atualizar Senha",
    "forgotPwdText": "Esqueci a Senha",
    "forgotPasswordLinkText": "Esqueceu a Senha?",
    "emailPasswordText": "Senha de E-mail",
    "ssoLoginText": "Logon Único"
  },
  "userDetails": {
    "wishlist": "Lista de desejos",
    "emailAddressText": "Endereço de E-mail",
    "forgottenPasswordModalClosedText": "A página da senha esquecida está fechada.",
    "headercreateNewPassword": "Criar Nova Senha",
    "createNewPwdMessage": "Senha atualizada com sucesso.",
    "emailAddressRequired": "O endereço de e-mail é obrigatório. ",
    "createNewPasswordModalOpenedText": "A página de criação de nova senha está aberta.",
    "networkConnectivityError": "Falha ao carregar alguns recursos devido a um problema de conectividade com a Internet. Se este problema persistir, tente carregar novamente a página.",
    "checkoutCreateAccountText": "A criação de uma conta permitirá que você compre mais rápido, mantenha-se atualizado sobre o status do pedido e controle os pedidos feitos anteriormente.",
    "createNewPasswordError": "Sua senha expirou. Atualize-a antes de fazer log-on.",
    "welcome": "Bem-vindo(a) __userName__",
    "cityRequired": "A cidade é obrigatória.",
    "invalidOrganization": "A organização selecionada não é uma organização válida para o usuário conectado.",
    "passwordText": "Senha",
    "noAccountText": "Não tem uma conta?",
    "emailAddressInvalid": "Entrada inválida. Informe um endereço de e-mail válido. Por exemplo, john@smith.com.",
    "accountAlreadyExists": "Já existe uma conta para este endereço de e-mail. Informe outro endereço de e-mail.",
    "lastNameRequired": "O sobrenome é obrigatório. ",
    "lastNameText": "Sobrenome",
    "registrationModalClosedText": "A página de registro está fechada.",
    "firstNameRequired": "O nome é obrigatório. ",
    "newConfirmPasswordText": "Confirmar Nova Senha",
    "filterText": "Pesquisar uma Conta",
    "confirmPasswordText": "Confirmar Senha",
    "marketingMailsText": "Quero receber atualizações por e-mail.",
    "loginModalOpenedText": "A página de log-on está aberta.",
    "addressLine1Required": "O endereço1 é obrigatório.",
    "maxlengthValidationMsg": "Entrada inválida. Não exceda o máximo de __maxLength__ caracteres.",
    "loginLinkText": "Log-on",
    "pickupDetailsErrorMsg": "Detalhes da sua retirada devem permanecer os mesmos para cada item que está sendo retirado na loja escolhida.",
    "resetPasswordModalClosedText": "A página de redefinição de senha está fechada.",
    "updatePasswordModalOpenedText": "A página de atualização de senha está aberta.",
    "companyNameRequiredText": "O nome da empresa é obrigatório.",
    "localeRequired": "O local é obrigatório. ",
    "oldPasswordsDoNotMatch": "Valor incorreto para senha anterior.",
    "buttonCreateAccount": "Criar Conta",
    "phoneNumberRequiredText": "O número de telefone é obrigatório.",
    "buttonLogin": "Log-on",
    "accountError": "Há um problema com sua conta. Entre em contato com o administrador da conta.",
    "emailInfoText": "É assim que enviaremos a confirmação do pedido e as atualizações de entrega.",
    "passwordUnmatched": "As senhas informadas não correspondem. Tente novamente. ",
    "companyNameRequired": "O nome da empresa é obrigatório. ",
    "headerCreateAccount": "Criar uma Conta",
    "newPasswdText": "Nova Senha",
    "titleError": "Erro",
    "updatePasswordModalClosedText": "A página de atualização de senha está fechada.",
    "maxLengthEmailAdd": "Entrada inválida. Não exceda o máximo de __maxLength__ caracteres",
    "titleLogin": "Log-on",
    "passwordRequired": "A senha é obrigatória. ",
    "firstNameText": "Nome",
    "personalizationConsentText": "Mostrar conteúdo relevante e promoções do site durante a navegação.",
    "registrationModalOpenedText": "A página de registro está aberta.",
    "nickNameRequiredText": "O apelido é obrigatório.",
    "currentPasswordRequired": "A senha atual é obrigatória.",
    "createNewPasswordModalClosedText": "A página de criação de nova senha está fechada.",
    "forgottenPasswordModalOpenedText": "A página da senha esquecida está aberta.",
    "confirmPasswordRequired": "Informe a senha novamente. ",
    "createAccountText": "Criar Conta",
    "createAccountSuccess": "A conta foi criada. Agradecemos o registro.",
    "loginModalClosedText": "A página de log-on está fechada.",
    "updateSuccessMsg": "Atualização salva com sucesso.",
    "loginRequired": "O log-on é obrigatório.",
    "logoutLinkText": "Log-out",
    "resetPasswordModalOpenedText": "A página de redefinição de senha está aberta.",
    "loginError": "Log-on malsucedido. Os detalhes informados não correspondem aos nossos registros, tente novamente.",
    "checkoutErrorMsg": "Verifique se você preencheu todos os campos obrigatórios e corrigiu todas as entradas inválidas.",
    "reloadPage": "Recarregar",
    "myAccount": "Minha Conta",
    "currentPasswordText": "Senha Atual"
  },
  "orderDetails": {
    "organizationDisaccoiatedErrorText": "O usuário não está associado à Conta __account__. Nenhuma operação é permitida neste pedido.",
    "ordersListingErrorText": "ERROR",
    "organizationInactiveErrorText": "A conta __account__ está atualmente inativa. Nenhuma operação é permitida neste pedido.",
    "userNotAssociatedToAnyAccountText": "O usuário não está associado a nenhuma conta. Nenhuma operação é permitida neste pedido.",
    "symbolAndAmountText": "__currencySymbol____amount__",
    "mixedCurrencyAmountText": "__primaryCurrencySymbol__ __primaryCurrencyAmount__+__secondaryCurrencySymbol____secondaryCurrencyAmount__",
    "orderNotAssociatedToAnyAccountText": "O pedido não está associado a nenhuma conta. Nenhuma operação é permitida neste pedido."
  },
  "storeText": {
    "goToPreviousPagePaginationSymbol": "<",
    "wishlistPageLoadedText": "A página Lista de Desejos é carregada.",
    "invalidOrderState": "Estado do pedido inválido.",
    "goToLastPagePaginationSymbol": ">>",
    "priceRangeText": "Faixa de Preços",
    "goToNextPagePaginationSymbol": ">",
    "septemberText": "Setembro",
    "goToFirstPagePaginationSymbol": "<<",
    "customTextNotFound": "[Texto Personalizado Ausente]",
    "januaryText": "Janeiro",
    "marchText": "Março",
    "novemberText": "Novembro",
    "pageLoadedText": "__page__ está carregada.",
    "decemberText": "Dezembro",
    "removeConfigurableMsg": "A alteração da moeda remove todos os itens configurados do carrinho. Deseja continuar?",
    "augustText": "Agosto",
    "loadingText": "Carregando...",
    "productPageLoadedText": "Página de detalhes do produto de __product__ está carregada.",
    "mayText": "Maio",
    "categoryText": "Categoria",
    "aprilText": "Abril",
    "juneText": "Junho",
    "octoberText": "Outubro",
    "julyText": "Julho",
    "februaryText": "Fevereiro",
    "categoryPageLoadedText": "Página da coleção de __collection__ está carregada"
  },
  "miniCart": {
    "cartDropDownText_plural": "__count__ itens - __currency____totalPrice__",
    "miniCartOpenedText": "O minicarrinho de compras está aberto.",
    "freeProductText": "Produto Gratuito",
    "miniCartClosedText": "O minicarrinho de compras está fechado.",
    "cartDropDownText": "__count__ item - __currency____totalPrice__"
  },
  "userPasswordPolicies": {
    "passwordPoliciesErrorText": "A senha informada não está de acordo com a política de senha. Tente novamente.",
    "embeddedAssistanceUseMixedCase": "contém caracteres maiúsculos e minúsculos",
    "embeddedAssistanceNotInPreviousNPasswords": "não foi usada anteriormente",
    "embeddedAssistancePreText": "Verifique se a sua senha:",
    "embeddedAssistanceCannotUseUsernameText": "difere de seu nome de usuário",
    "embeddedAssistanceUseNumber": "contém um número",
    "embeddedAssistanceMinPasswordLengthText": "tem pelo menos __min__ caracteres",
    "embeddedAssistanceUseSymbol": "inclui um dos seguintes caracteres de símbolo __chars__"
  },
  "return": {
    "minimumValueMsg": "Quantidade inválida. Informe 1 ou mais.",
    "noReturnableItem": "Os itens no seu pedido não podem ser devolvidos",
    "invalidQuantityMsg": "Quantidade Inválida",
    "someitemsDeleted": "Alguns itens foram excluídos.",
    "returnRequestFailed": "Sua solicitação de devolução não obteve êxito.",
    "returnRequestSuccess": "Solicitação de devolução '__requestId__' Enviada. Foi enviado um e-mail para '__emailId__'",
    "invalidQuantity": "Quantidade inválida. Não é permitido um valor maior que __stockLimit__.",
    "itemOutOfStockMessage": "O item selecionado está esgotado.",
    "invalidReturnQuantity": "A quantidade devolvida deste item deve ser maior do que zero e não pode exceder a quantidade original pedida ou a quantidade original menos a quantidade associada a quaisquer solicitações de devolução anteriores.",
    "noItemSelectError": "Selecione um motivo de devolução e uma quantidade para pelo menos um item.",
    "allitemssDeleted": "Todos os itens do pedido foram excluídos."
  }
}