{
  "widgetType": "ob-home-banner-carousel-widget",
  "version": 1,
  "displayName": "ob-home-banner-carousel-widget",
  "elementized": false,
  "global": false,
  "i18nresources": "ob-home-banner-carousel-widget",
  "source": 101,
  "javascript": "ob-home-banner-carousel-widget"
}
