{
  "widgetDescriptorName": "ob-content-item-widget",
  "properties": [
    {
      "name": "exampleStringProperty",
      "id": "exampleStringProperty",
      "type": "stringType",
      "labelResourceId": "exampleStringPropertyLabel",
      "helpTextResourceId": "exampleStringPropertyHelpText",
      "required": true
    },
    {
      "defaultValue": "option1",
      "name": "exampleOptionProperty",
      "options": [
        {
          "id": "exampleOption1",
          "labelResourceId": "exampleOption1Label",
          "value": "exampleOption1"
        },
        {
          "id": "exampleOption2",
          "labelResourceId": "exampleOption2Label",
          "value": "exampleOption2"
        },
        {
          "id": "exampleOption3",
          "labelResourceId": "exampleOption3Label",
          "value": "exampleOption3"
        }
      ],
      "id": "exampleOptionProperty",
      "type": "optionType",
      "helpTextResourceId": "exampleOptionPropertyHelpText",
      "labelResourceId": "exampleOptionPropertyLabel"
    },
    {
      "defaultValue": true,
      "name": "exampleBooleanProperty",
      "id": "exampleBooleanProperty",
      "type": "booleanType",
      "helpTextResourceId": "exampleBooleanPropertyHelpText",
      "labelResourceId": "exampleBooleanPropertyLabel"
    }
  ]
}