{
  "widgetType": "ob-siteredirect-widget",
  "version": 1,
  "displayName": "ob-siteRedirect-widget",
  "elementized": false,
  "global": true,
  "source": 101,
  "javascript": "ob-siteredirect-widget"
}
