{
  "widgetType": "ob-overlay-guided-navigation-widget",
  "version": 1,
  "displayName": "ob-overlay-guided-navigation-widget",
  "elementized": false,
  "global": false,
  "i18nresources": "ob-overlay-guided-navigation-widget",
  "source": 101,
  "javascript": "ob-overlay-guided-navigation-widget"
}
